Image/sp000000.bmp,0,0
Image/sp000002.bmp,50.8966,1.16274
Image/sp000008.bmp,50.9106,1.17087
Image/sp000018.bmp,50.9379,1.19809
Image/sp000032.bmp,50.9521,1.21246
Image/sp000050.bmp,50.9303,1.18454
Image/sp000072.bmp,50.9538,1.20049
Image/sp000098.bmp,51.0035,1.25944
Image/sp000128.bmp,50.9972,1.25013
Image/sp000162.bmp,51.0032,1.2607
Image/sp000200.bmp,50.9554,1.19881
Image/sp000242.bmp,51.0385,1.31186
Image/sp000288.bmp,51.0357,1.27265
Image/sp000338.bmp,51.0272,1.26976
Image/sp000392.bmp,51.0395,1.25399
Image/sp000450.bmp,51.0167,1.23259
Image/sp000512.bmp,51.0474,1.25557
Image/sp000578.bmp,51.0173,1.22957
Image/sp000648.bmp,51.0507,1.25555
Image/sp000722.bmp,51.1375,1.33854
Image/sp000800.bmp,51.1666,1.37244
Image/sp000882.bmp,51.2362,1.45555
Image/sp000968.bmp,51.0952,1.30564
Image/sp001058.bmp,51.2431,1.44578
Image/sp001152.bmp,51.2947,1.51542
Image/sp001250.bmp,51.1955,1.36826
Image/sp001352.bmp,51.2249,1.3863
Image/sp001458.bmp,51.1618,1.3395
Image/sp001568.bmp,51.1021,1.27579
Image/sp001682.bmp,51.2955,1.50192
Image/sp001800.bmp,51.1972,1.3687
Image/sp001922.bmp,51.4825,1.70878
Image/sp002048.bmp,51.2759,1.4346
Image/sp002178.bmp,51.4439,1.64821
Image/sp002312.bmp,51.1052,1.27302
Image/sp002450.bmp,51.5084,1.67107
Image/sp002592.bmp,51.4312,1.55055
Image/sp002738.bmp,51.5786,1.76322
Image/sp002888.bmp,51.2247,1.35231
Image/sp003042.bmp,51.364,1.46239
Image/sp003200.bmp,51.4192,1.51032
Image/sp003362.bmp,51.3214,1.43066
Image/sp003528.bmp,51.5374,1.64184
Image/sp003698.bmp,51.2534,1.36306
Image/sp003872.bmp,51.5725,1.65137
Image/sp004050.bmp,51.3576,1.46763
Image/sp004232.bmp,51.513,1.5659
Image/sp004418.bmp,51.5794,1.62787
Image/sp004608.bmp,51.5663,1.59481
Image/sp004802.bmp,51.4835,1.50604
Image/sp005000.bmp,51.3023,1.36286
Image/sp005202.bmp,51.4105,1.48211
Image/sp005408.bmp,51.6128,1.68437
Image/sp005618.bmp,51.5794,1.57689
Image/sp005832.bmp,51.4807,1.54407
Image/sp006050.bmp,51.4563,1.52752
Image/sp006272.bmp,51.2267,1.327
Image/sp006498.bmp,51.4964,1.54284
Image/sp006728.bmp,51.7103,1.77119
Image/sp006962.bmp,51.2987,1.3639
Image/sp007200.bmp,51.8511,1.78652
Image/sp007442.bmp,51.9024,1.84079
Image/sp007688.bmp,51.9444,1.97569
Image/sp007938.bmp,51.7315,1.69494
Image/sp008192.bmp,51.6379,1.55538
Image/sp008450.bmp,51.5235,1.51049
Image/sp008712.bmp,51.8084,1.6878
Image/sp008978.bmp,51.6231,1.59416
Image/sp009248.bmp,51.8065,1.67637
Image/sp009522.bmp,52.0185,1.87461
Image/sp009800.bmp,51.6648,1.57478
Image/sp010082.bmp,51.7887,1.64614
Image/sp010368.bmp,51.8433,1.69554
Image/sp010658.bmp,51.403,1.39479
Image/sp010952.bmp,52.1363,2.04444
Image/sp011250.bmp,52.0923,1.91137
Image/sp011552.bmp,52.041,1.83933
Image/sp011858.bmp,51.9453,1.73356
Image/sp012168.bmp,51.8212,1.65462
Image/sp012482.bmp,52.4584,2.19447
Image/sp012800.bmp,52.2391,1.94138
Image/sp013122.bmp,52.061,1.81869
Image/sp013448.bmp,51.7715,1.63265
Image/sp013778.bmp,52.325,2.0053
Image/sp014112.bmp,52.0323,1.75888
Image/sp014450.bmp,51.6709,1.54084
Image/sp014792.bmp,52.1425,1.82642
Image/sp015138.bmp,51.7802,1.58753
Image/sp015488.bmp,52.2146,1.99408
Image/sp015842.bmp,51.7198,1.56265
Image/sp016200.bmp,51.8955,1.70844
Image/sp016562.bmp,52.2758,1.91309
Image/sp016928.bmp,51.7061,1.49935
Image/sp017298.bmp,52.0467,1.77601
Image/sp017672.bmp,52.136,1.8138
Image/sp018050.bmp,52.4793,2.05396
Image/sp018432.bmp,51.7601,1.51646
Image/sp018818.bmp,52.0553,1.80561
Image/sp019208.bmp,52.065,1.7266
Image/sp019602.bmp,52.3052,1.90292
Image/sp020000.bmp,51.5148,1.39906
Image/sp020402.bmp,52.4321,1.93592
Image/sp020808.bmp,51.6602,1.47561
Image/sp021218.bmp,52.5536,2.03158
Image/sp021632.bmp,52.7428,2.21876
Image/sp022050.bmp,51.7818,1.52411
Image/sp022472.bmp,52.6683,2.04548
Image/sp022898.bmp,51.7908,1.51932
Image/sp023328.bmp,52.6545,2.07163
Image/sp023762.bmp,52.7373,2.18
Image/sp024200.bmp,51.6811,1.48968
Image/sp024642.bmp,52.5303,1.9588
Image/sp025088.bmp,51.4948,1.37576
Image/sp025538.bmp,52.3019,1.79422
Image/sp025992.bmp,52.3712,1.98156
Image/sp026450.bmp,51.9548,1.5774
Image/sp026912.bmp,51.9317,1.60658
Image/sp027378.bmp,52.7331,2.04763
Image/sp027848.bmp,51.5951,1.40944
Image/sp028322.bmp,52.3754,1.83721
Image/sp028800.bmp,53.1644,2.33037
Image/sp029282.bmp,51.7861,1.47275
Image/sp029768.bmp,52.5487,1.84989
Image/sp030258.bmp,52.4805,1.91427
Image/sp030752.bmp,53.2525,2.33024
Image/sp031250.bmp,51.8954,1.5511
Image/sp031752.bmp,52.6474,1.96071
Image/sp032258.bmp,53.4008,2.39562
Image/sp032768.bmp,51.8932,1.50189
Image/sp033282.bmp,52.6166,1.87122
Image/sp033800.bmp,52.4086,1.8666
Image/sp034322.bmp,53.1288,2.21109
Image/sp034848.bmp,52.5798,1.83487
Image/sp035378.bmp,52.3757,1.80276
Image/sp035912.bmp,53.0879,2.19485
Image/sp036450.bmp,52.3524,1.76409
Image/sp036992.bmp,52.0512,1.54863
Image/sp037538.bmp,52.7287,1.86623
Image/sp038088.bmp,53.4305,2.24704
Image/sp038642.bmp,53.1624,2.23531
Image/sp039200.bmp,52.5156,1.77216
Image/sp039762.bmp,53.167,2.14711
Image/sp040328.bmp,52.8187,2.01278
Image/sp040898.bmp,53.4891,2.33941
Image/sp041472.bmp,52.5899,1.76836
Image/sp042050.bmp,52.2531,1.64559
Image/sp042632.bmp,52.9158,1.95468
Image/sp043218.bmp,53.5609,2.26265
Image/sp043808.bmp,53.1429,2.1648
Image/sp044402.bmp,52.3402,1.64127
Image/sp045000.bmp,52.9654,1.94659
Image/sp045602.bmp,52.5664,1.89702
Image/sp046208.bmp,53.1899,2.175
Image/sp046818.bmp,52.1676,1.58247
Image/sp047432.bmp,52.7718,1.79672
Image/sp048050.bmp,52.2578,1.62515
Image/sp048672.bmp,52.8585,1.8872
Image/sp049298.bmp,53.471,2.12807
Image/sp049928.bmp,54.0551,2.37959
Image/sp050562.bmp,52.0863,1.5097
Image/sp051200.bmp,52.6649,1.79828
Image/sp051842.bmp,53.2515,2.06278
Image/sp052488.bmp,53.8505,2.35553
Image/sp053138.bmp,53.2582,2.16278
Image/sp053792.bmp,52.0458,1.49444
Image/sp054450.bmp,52.6033,1.65143
Image/sp055778.bmp,52.6309,1.79639
Image/sp056448.bmp,53.1966,2.02481
Image/sp057800.bmp,52.6938,1.7571
Image/sp058482.bmp,52.0069,1.43568
Image/sp059858.bmp,53.0876,1.92012
Image/sp060552.bmp,53.6427,2.14147
Image/sp061952.bmp,53.5639,2.25312
Image/sp062658.bmp,52.1494,1.47938
Image/sp063368.bmp,52.6709,1.65466
Image/sp064800.bmp,53.7344,2.09428
Image/sp065522.bmp,52.9335,1.85643
Image/sp066978.bmp,53.9963,2.18758
Image/sp067712.bmp,52.7748,1.65375
Image/sp068450.bmp,53.2867,1.86672
Image/sp069938.bmp,53.0395,1.8902
Image/sp070688.bmp,53.5685,2.08803
Image/sp071442.bmp,54.0848,2.26409
Image/sp072962.bmp,53.7077,2.19665
Image/sp073728.bmp,52.0488,1.41578
Image/sp074498.bmp,52.5386,1.57071
Image/sp075272.bmp,53.0181,1.73803
Image/sp076832.bmp,54.0036,2.05351
Image/sp077618.bmp,53.1702,1.915
Image/sp078408.bmp,53.6732,2.06172
Image/sp080000.bmp,52.7444,1.61831
Image/sp080802.bmp,53.2017,1.73936
Image/sp081608.bmp,53.6995,1.93869
Image/sp082418.bmp,52.6573,1.6702
Image/sp083232.bmp,53.1132,1.84594
Image/sp084872.bmp,54.0679,2.13087
Image/sp085698.bmp,54.5273,2.2448
Image/sp086528.bmp,55.0091,2.36008
Image/sp087362.bmp,53.127,1.66955
Image/sp088200.bmp,52.1618,1.40773
Image/sp089888.bmp,53.0502,1.73345
Image/sp090738.bmp,53.5069,1.88034
Image/sp091592.bmp,53.9727,1.98931
Image/sp092450.bmp,54.4177,2.08592
Image/sp093312.bmp,54.8642,2.21234
Image/sp094178.bmp,53.7084,1.95588
Image/sp095922.bmp,52.5221,1.46972
Image/sp096800.bmp,52.9433,1.57177
Image/sp097682.bmp,53.3828,1.70983
Image/sp098568.bmp,53.8189,1.84748
Image/sp099458.bmp,54.2579,1.98941
Image/sp100352.bmp,53.1692,1.79247
Image/sp101250.bmp,53.616,1.95092
Image/sp102152.bmp,54.0637,2.07387
Image/sp103968.bmp,54.9177,2.2483
Image/sp104882.bmp,55.3398,2.30315
Image/sp105800.bmp,53.141,1.55012
Image/sp106722.bmp,53.5883,1.66503
Image/sp107648.bmp,52.2372,1.41246
Image/sp108578.bmp,52.6526,1.56647
Image/sp109512.bmp,53.0494,1.688
Image/sp110450.bmp,53.4569,1.78966
Image/sp111392.bmp,53.8516,1.85488
Image/sp112338.bmp,54.2869,1.93182
Image/sp113288.bmp,54.7105,1.9762
Image/sp114242.bmp,55.128,2.02599
Image/sp115200.bmp,55.5271,2.09253
Image/sp116162.bmp,54.3164,1.92558
Image/sp117128.bmp,52.4463,1.39366
Image/sp118098.bmp,52.8301,1.48949
Image/sp119072.bmp,53.2454,1.63669
Image/sp120050.bmp,53.6007,1.73702
Image/sp121032.bmp,54.0222,1.85533
Image/sp122018.bmp,54.4162,1.93413
Image/sp123008.bmp,54.8132,2.01584
Image/sp125000.bmp,53.7256,1.85488
Image/sp126002.bmp,54.1035,1.93231
Image/sp127008.bmp,54.5187,1.9972
Image/sp128018.bmp,54.9042,2.04227
Image/sp129032.bmp,55.3082,2.06792
Image/sp130050.bmp,52.7148,1.4438
Image/sp131072.bmp,53.0922,1.4268
Image/sp132098.bmp,53.456,1.47133
Image/sp133128.bmp,53.8292,1.55467
Image/sp134162.bmp,54.2123,1.68445
Image/sp135200.bmp,52.8502,1.55508
Image/sp136242.bmp,53.193,1.64968
Image/sp137288.bmp,53.5639,1.75848
Image/sp138338.bmp,53.9431,1.83195
Image/sp139392.bmp,54.304,1.87297
Image/sp140450.bmp,54.6864,1.91944
Image/sp141512.bmp,55.0461,1.9232
Image/sp142578.bmp,55.4363,1.91838
Image/sp143648.bmp,55.8024,1.90145
Image/sp144722.bmp,56.1806,1.89151
Image/sp145800.bmp,54.0611,1.57218
Image/sp146882.bmp,52.3324,1.26607
Image/sp147968.bmp,52.6901,1.3616
Image/sp149058.bmp,53.0322,1.48734
Image/sp150152.bmp,53.3753,1.57552
Image/sp151250.bmp,53.719,1.66705
Image/sp152352.bmp,54.0709,1.72877
Image/sp153458.bmp,54.4529,1.79487
Image/sp154568.bmp,54.7967,1.81935
Image/sp155682.bmp,55.1362,1.83142
Image/sp156800.bmp,55.494,1.8537
Image/sp157922.bmp,55.8543,1.87964
Image/sp159048.bmp,56.1951,1.91455
Image/sp160178.bmp,54.6706,1.79422
Image/sp161312.bmp,55.0699,1.82406
Image/sp162450.bmp,55.4082,1.83538
Image/sp163592.bmp,55.7715,1.81588
Image/sp164738.bmp,52.7084,1.41099
Image/sp165888.bmp,53.0374,1.40967
Image/sp167042.bmp,53.3564,1.42342
Image/sp168200.bmp,53.6944,1.48725
Image/sp169362.bmp,54.0226,1.52146
Image/sp170528.bmp,54.3746,1.56599
Image/sp171698.bmp,54.7572,1.63032
Image/sp172872.bmp,55.0711,1.68076
Image/sp174050.bmp,53.121,1.56486
Image/sp175232.bmp,53.4428,1.62159
Image/sp176418.bmp,53.8167,1.69509
Image/sp177608.bmp,54.0829,1.71042
Image/sp178802.bmp,54.4423,1.75462
Image/sp180000.bmp,54.7337,1.72754
Image/sp181202.bmp,55.1192,1.71822
Image/sp182408.bmp,55.4272,1.67639
Image/sp183618.bmp,55.7847,1.59891
Image/sp184832.bmp,56.1163,1.51244
Image/sp186050.bmp,56.4301,1.41828
Image/sp187272.bmp,53.9541,1.26112
Image/sp188498.bmp,54.2328,1.19335
Image/sp189728.bmp,54.5444,1.22238
Image/sp190962.bmp,53.9331,1.59125
Image/sp192200.bmp,53.134,1.35144
Image/sp193442.bmp,53.4343,1.45551
Image/sp194688.bmp,53.7464,1.54979
Image/sp195938.bmp,54.064,1.6289
Image/sp197192.bmp,54.3684,1.68834
Image/sp198450.bmp,54.7136,1.73708
Image/sp199712.bmp,55.0143,1.75033
Image/sp200978.bmp,55.3256,1.78988
Image/sp202248.bmp,55.6488,1.80769
Image/sp203522.bmp,55.936,1.83626
Image/sp204800.bmp,56.3036,1.83343
Image/sp206082.bmp,56.5877,1.84588
Image/sp207368.bmp,56.8987,1.85501
Image/sp208658.bmp,57.2467,1.831
Image/sp209952.bmp,57.5428,1.85933
Image/sp211250.bmp,55.3756,1.7169
Image/sp212552.bmp,55.6562,1.73021
Image/sp213858.bmp,55.993,1.72786
Image/sp215168.bmp,52.3258,1.35143
Image/sp216482.bmp,52.6167,1.37092
Image/sp217800.bmp,52.8848,1.39344
Image/sp219122.bmp,53.1987,1.45161
Image/sp220448.bmp,53.4705,1.50498
Image/sp221778.bmp,53.8214,1.54817
Image/sp223112.bmp,54.1217,1.59055
Image/sp224450.bmp,54.3823,1.62143
Image/sp225792.bmp,54.6067,1.61617
Image/sp227138.bmp,54.9551,1.66552
Image/sp228488.bmp,55.2437,1.70011
Image/sp229842.bmp,55.5194,1.71318
Image/sp231200.bmp,55.8431,1.7491
Image/sp232562.bmp,56.1266,1.79625
Image/sp233928.bmp,54.1842,1.69942
Image/sp235298.bmp,54.4291,1.73698
Image/sp236672.bmp,54.7213,1.78795
Image/sp238050.bmp,55.0093,1.82432
Image/sp239432.bmp,55.3049,1.86222
Image/sp240818.bmp,55.6147,1.89162
Image/sp242208.bmp,55.8719,1.90838
Image/sp243602.bmp,56.1965,1.90085
Image/sp245000.bmp,56.4425,1.92237
Image/sp246402.bmp,56.7363,1.91961
Image/sp247808.bmp,57.069,1.8838
Image/sp249218.bmp,54.0634,1.5278
Image/sp250632.bmp,54.3764,1.55774
Image/sp252050.bmp,54.6649,1.58438
Image/sp253472.bmp,54.9304,1.61618
Image/sp254898.bmp,55.2052,1.65656
Image/sp256328.bmp,55.5287,1.70766
Image/sp257762.bmp,55.7981,1.7697
Image/sp259200.bmp,56.1036,1.81095
Image/sp260642.bmp,53.5319,1.53345
Image/sp262088.bmp,53.8068,1.60063
Image/sp263538.bmp,54.0382,1.6474
Image/sp264992.bmp,54.3585,1.71818
Image/sp266450.bmp,54.6331,1.77113
Image/sp267912.bmp,54.8818,1.79879
Image/sp269378.bmp,55.1667,1.8464
Image/sp270848.bmp,55.4216,1.87932
Image/sp272322.bmp,55.722,1.90722
Image/sp273800.bmp,55.93,1.96542
Image/sp275282.bmp,56.2415,2.0119
Image/sp276768.bmp,56.4709,2.06528
Image/sp278258.bmp,56.7745,2.09555
Image/sp279752.bmp,57.0476,2.12804
Image/sp281250.bmp,57.2918,2.17009
Image/sp282752.bmp,57.5959,2.16647
Image/sp284258.bmp,57.8774,2.18518
Image/sp285768.bmp,58.1425,2.19207
Image/sp287282.bmp,58.4082,2.21913
Image/sp288800.bmp,58.6714,2.27176
Image/sp290322.bmp,58.9436,2.2754
Image/sp291848.bmp,56.7268,2.14885
Image/sp293378.bmp,52.3016,1.35354
Image/sp294912.bmp,52.5309,1.3718
Image/sp296450.bmp,52.7809,1.38965
Image/sp297992.bmp,53.0282,1.44766
Image/sp299538.bmp,53.2866,1.49919
Image/sp301088.bmp,53.5125,1.53336
Image/sp302642.bmp,53.7552,1.56211
Image/sp304200.bmp,54.0312,1.61179
Image/sp305762.bmp,54.2422,1.63348
Image/sp307328.bmp,54.5087,1.67997
Image/sp308898.bmp,54.7378,1.70664
Image/sp310472.bmp,55.0429,1.76062
Image/sp312050.bmp,55.2595,1.79831
Image/sp313632.bmp,55.5625,1.83146
Image/sp315218.bmp,55.7953,1.85554
Image/sp316808.bmp,56.0621,1.88636
Image/sp318402.bmp,56.2883,1.92398
Image/sp320000.bmp,56.5569,1.94338
Image/sp321602.bmp,56.8014,1.97512
Image/sp323208.bmp,57.0766,2.00127
Image/sp324818.bmp,57.3073,2.0504
Image/sp326432.bmp,57.5662,2.09561
Image/sp328050.bmp,57.7957,2.1459
Image/sp329672.bmp,54.8642,1.85209
Image/sp331298.bmp,55.125,1.88939
Image/sp332928.bmp,55.3727,1.93071
Image/sp334562.bmp,55.6583,1.94691
Image/sp336200.bmp,55.8846,1.98232
Image/sp337842.bmp,56.1697,1.96861
Image/sp339488.bmp,56.3732,2.00811
Image/sp341138.bmp,56.6013,2.02098
Image/sp342792.bmp,56.8677,2.02648
Image/sp344450.bmp,57.1144,2.01379
Image/sp346112.bmp,57.3453,2.02679
Image/sp347778.bmp,57.5966,2.03115
Image/sp349448.bmp,54.0913,1.5489
Image/sp351122.bmp,54.3613,1.58571
Image/sp352800.bmp,54.5786,1.61512
Image/sp354482.bmp,54.8209,1.64805
Image/sp356168.bmp,55.0042,1.70626
Image/sp357858.bmp,55.2645,1.72841
Image/sp359552.bmp,55.516,1.7796
Image/sp361250.bmp,55.7522,1.81964
Image/sp362952.bmp,55.9961,1.83919
Image/sp364658.bmp,56.2263,1.87092
Image/sp366368.bmp,56.4696,1.89311
Image/sp368082.bmp,56.706,1.91492
Image/sp369800.bmp,56.8633,1.9878
Image/sp371522.bmp,57.1518,2.00737
Image/sp373248.bmp,57.3824,2.04305
Image/sp374978.bmp,54.8238,1.76844
Image/sp376712.bmp,55.0744,1.78845
Image/sp378450.bmp,55.2833,1.83158
Image/sp380192.bmp,55.508,1.86614
Image/sp381938.bmp,55.7447,1.89503
Image/sp383688.bmp,55.9917,1.90895
Image/sp385442.bmp,56.1839,1.96866
Image/sp387200.bmp,56.4348,1.98855
Image/sp388962.bmp,56.6806,2.03969
Image/sp390728.bmp,56.8767,2.09789
Image/sp392498.bmp,57.1192,2.11299
Image/sp394272.bmp,57.3448,2.16455
Image/sp396050.bmp,57.5706,2.22054
Image/sp397832.bmp,57.803,2.25146
Image/sp399618.bmp,58.0283,2.30813
Image/sp401408.bmp,58.233,2.3752
Image/sp403202.bmp,58.4882,2.40392
Image/sp405000.bmp,58.7015,2.46935
Image/sp406802.bmp,58.923,2.50096
Image/sp408608.bmp,59.1443,2.53722
Image/sp410418.bmp,59.3885,2.55707
Image/sp412232.bmp,59.61,2.58689
Image/sp414050.bmp,59.831,2.62042
Image/sp415872.bmp,60.0649,2.6319
Image/sp417698.bmp,60.285,2.6456
Image/sp419528.bmp,60.5236,2.65682
Image/sp421362.bmp,54.9863,1.74445
Image/sp423200.bmp,55.2661,1.74696
Image/sp425042.bmp,55.4693,1.7526
Image/sp426888.bmp,55.663,1.79505
Image/sp428738.bmp,55.9203,1.80096
Image/sp430592.bmp,52.3672,1.41453
Image/sp432450.bmp,52.5677,1.44068
Image/sp434312.bmp,52.7967,1.48268
Image/sp436178.bmp,52.9805,1.50297
Image/sp438048.bmp,53.2094,1.54732
Image/sp439922.bmp,53.4113,1.57564
Image/sp441800.bmp,53.5924,1.58571
Image/sp443682.bmp,53.8443,1.61139
Image/sp445568.bmp,54.067,1.62064
Image/sp447458.bmp,54.1835,1.60293
Image/sp449352.bmp,54.4241,1.6284
Image/sp451250.bmp,54.6825,1.62136
Image/sp453152.bmp,54.8612,1.62892
Image/sp455058.bmp,55.0787,1.61935
Image/sp456968.bmp,55.2789,1.62707
Image/sp458882.bmp,55.507,1.62322
Image/sp460800.bmp,55.655,1.63798
Image/sp462722.bmp,55.9115,1.63982
Image/sp464648.bmp,56.1297,1.64201
Image/sp466578.bmp,56.3255,1.68197
Image/sp468512.bmp,56.5414,1.697
Image/sp470450.bmp,56.7412,1.72367
Image/sp472392.bmp,56.9523,1.76023
Image/sp474338.bmp,57.1575,1.78682
Image/sp476288.bmp,57.3532,1.82794
Image/sp478242.bmp,57.5618,1.87293
Image/sp480200.bmp,57.7715,1.87954
Image/sp482162.bmp,57.9732,1.92656
Image/sp484128.bmp,58.177,1.94761
Image/sp486098.bmp,58.3816,1.97944
Image/sp488072.bmp,58.6031,1.97968
Image/sp490050.bmp,58.7959,2.02366
Image/sp492032.bmp,58.9978,2.05601
Image/sp494018.bmp,59.2132,2.05217
Image/sp496008.bmp,59.4129,2.10229
Image/sp498002.bmp,59.6227,2.12829
Image/sp500000.bmp,44.46,23.1244
