InputImage/sp000002.bmp,101.835,2.25108
InputImage/sp000098.bmp,101.979,2.27361
InputImage/sp000200.bmp,102.014,2.28159
InputImage/sp000288.bmp,102.113,2.41011
InputImage/sp000392.bmp,102.015,2.2556
InputImage/sp000450.bmp,102.082,2.2908
InputImage/sp000578.bmp,102.133,2.34642
InputImage/sp000648.bmp,102.178,2.43895
InputImage/sp000800.bmp,102.178,2.36915
InputImage/sp000882.bmp,102.175,2.33575
InputImage/sp000968.bmp,102.133,2.30705
InputImage/sp001922.bmp,102.386,2.41802
InputImage/sp002888.bmp,102.201,2.26336
InputImage/sp003872.bmp,102.437,2.36185
InputImage/sp005000.bmp,102.505,2.36469
InputImage/sp005832.bmp,102.599,2.45995
InputImage/sp006962.bmp,102.891,2.54751
InputImage/sp007938.bmp,102.437,2.28424
InputImage/sp008978.bmp,103.099,2.6663
InputImage/sp009800.bmp,102.904,2.5123
InputImage/sp010952.bmp,103.089,2.57904
InputImage/sp011858.bmp,102.991,2.48496
InputImage/sp012800.bmp,103.244,2.62492
InputImage/sp013778.bmp,103.687,2.94299
InputImage/sp014792.bmp,103.182,2.65137
InputImage/sp015842.bmp,102.897,2.43241
InputImage/sp016928.bmp,102.901,2.39534
InputImage/sp017672.bmp,103.782,2.85994
InputImage/sp018818.bmp,103.156,2.64768
InputImage/sp020000.bmp,102.764,2.27582
InputImage/sp020808.bmp,103.156,2.47324
InputImage/sp021632.bmp,103.409,2.70639
InputImage/sp022898.bmp,103.854,2.77672
InputImage/sp023762.bmp,103.903,2.91113
InputImage/sp024642.bmp,102.609,2.23548
InputImage/sp025992.bmp,103.703,2.68788
InputImage/sp026912.bmp,104.275,2.94627
InputImage/sp027848.bmp,103.817,2.72537
InputImage/sp028800.bmp,104.229,2.92624
InputImage/sp029768.bmp,103.557,2.64022
InputImage/sp049928.bmp,104.713,2.86899
InputImage/sp080000.bmp,104.059,2.37854
InputImage/sp089888.bmp,103.832,2.32017
InputImage/sp099458.bmp,105.844,2.64739
