47185.87168,1.000169016
962.9769731,1.002906091
471.8587168,1.002419518
327.6796645,1.004727037
240.7442433,1.005217378
209.7149853,1.005048378
163.2729124,1.005780279
145.6354064,1.006921382
117.9646792,1.010423886
106.9974415,1.012329807
97.49147042,1.0095975
49.100803,1.023510342
32.67719646,1.023117128
24.3728676,1.036371523
18.87434867,1.036816574
16.18171183,1.045576897
13.55526334,1.048163298
11.88860461,1.063928226
10.5114439,1.067820645
9.629769731,1.073851589
8.616850198,1.092089879
7.958487381,1.093389259
7.37279245,1.10686634
6.849451543,1.115358799
6.37991775,1.117743861
5.957059927,1.115061895
5.574890322,1.122042027
5.340184663,1.137806279
5.014972014,1.144171954
4.718587168,1.139375057