000002,24111289,0.5
000008,24113745,0.125
000018,24124588,0.0555554
000032,24128441,0.03125
000050,24124536,0.02
000072,24157093,0.0138888
000098,24145549,0.0102041
000128,24138129,0.0078125
000162,24164263,0.00617283
000200,24154221,0.005
000242,24197966,0.00413221
000288,24201097,0.00347219
000338,24198292,0.00295857
000392,24162713,0.00255098
000450,24197881,0.00222218
000512,24157729,0.00195312
000578,24196560,0.00173007
000648,24186313,0.00154318
000722,24244077,0.00138501
000800,24261641,0.00125
000882,24203446,0.00113378
000968,24277969,0.00103303
001058,24229834,0.000945167
001152,24272113,0.000868027
001250,24264426,0.000799998
001352,24275213,0.000739623
001458,24269194,0.000685866
001568,24264073,0.000637744
001682,24331871,0.000594504
001800,24284761,0.000555544
001922,24277806,0.000520283
002048,24273985,0.000488281
002178,24290212,0.000459133
002312,24381265,0.000432503
002450,24391046,0.00040815
002592,24319513,0.00038578
002738,24294349,0.000365227
002888,24382017,0.000346239
003042,24349768,0.000328728
003200,24310481,0.000312499
003362,24344325,0.000297436
003528,24327409,0.000283433
003698,24462357,0.000270397
003872,24327865,0.000258256
004050,24520816,0.000246908
004232,24287541,0.000236292
004418,24387455,0.000226334
004608,24450145,0.000217007
004802,24468690,0.000208243
005000,24450101,0.0002
005202,24566548,0.000192217
005408,24465897,0.000184896
005618,24485441,0.000177982
005832,24337045,0.000171458
006050,24578236,0.000165274
006272,24326065,0.000159435
006498,24248434,0.000153878
006728,24115722,0.000148626
006962,24232437,0.000143634
007200,24037858,0.000138878
007442,24115895,0.000134364
007688,24156246,0.000130069
007938,24092223,0.000125975
008192,24099239,0.00012207
008450,24068341,0.000118333
008712,24252992,0.000114776
008978,24177724,0.000111377
009248,24334245,0.000108119
009522,24215176,0.000105009
009800,24327041,0.00010203
010082,24165081,9.91793e-05
010368,24248774,9.64383e-05
010658,24287748,9.38174e-05
010952,24082904,9.13002e-05
011250,24094790,8.8884e-05
011552,24101441,8.65533e-05
011858,24079411,8.43298e-05
012168,24055452,8.21759e-05
012482,24122716,8.01125e-05
012800,24050255,7.81249e-05
013122,23979422,7.6199e-05
013448,23874411,7.43589e-05
013778,24162732,7.25765e-05
014112,24055624,7.08519e-05
014450,23895456,6.91957e-05
014792,24164965,6.75931e-05
015138,24003857,6.60558e-05
015488,23809197,6.45589e-05
015842,24344905,6.31126e-05
016200,24144062,6.17267e-05
016562,23908636,6.03779e-05
016928,24107323,5.90675e-05
017298,23875609,5.78024e-05
017672,24056915,5.65835e-05
018050,24079754,5.53977e-05
018432,24260977,5.42462e-05
018818,23963138,5.31375e-05
019208,24125860,5.20604e-05
019602,24108190,5.10141e-05
020000,24240716,4.99999e-05
020402,23906708,4.90047e-05
020808,24375847,4.80494e-05
021218,23961720,4.71225e-05
021632,24076009,4.62239e-05
022050,24042664,4.53435e-05
022472,24124393,4.44907e-05
022898,23677458,4.36645e-05
023328,24114306,4.28644e-05
023762,24174576,4.20802e-05
024200,24098735,4.13136e-05
024642,24161119,4.05801e-05
025088,23633364,3.98541e-05
025538,24050607,3.91521e-05
025992,24094528,3.84652e-05
026450,23974616,3.7801e-05
026912,23982981,3.71519e-05
027378,23797979,3.65247e-05
027848,23807828,3.59043e-05
028322,24207829,3.53047e-05
028800,23636425,3.47192e-05
029282,24024017,3.41464e-05
029768,24015218,3.35872e-05
030258,23780055,3.30481e-05
030752,23728751,3.25138e-05
031250,24106975,3.19997e-05
031752,23906478,3.14896e-05
032258,23862280,3.09983e-05
032768,24232321,3.05136e-05
033282,24159097,3.00389e-05
033800,23862517,2.95833e-05
034322,23965823,2.91311e-05
034848,24152793,2.86901e-05
035378,23900530,2.82601e-05
035912,23791935,2.78405e-05
036450,24142130,2.74315e-05
036992,24494583,2.70259e-05
037538,23696727,2.66373e-05
038088,24039348,2.62522e-05
038642,23898408,2.58754e-05
039200,24239604,2.55037e-05
039762,23930694,2.51482e-05
040328,23801963,2.47948e-05
040898,24133023,2.44504e-05
041472,24467023,2.41092e-05
042050,23551062,2.37771e-05
042632,23871839,2.34543e-05
043218,24196010,2.31333e-05
043808,24037281,2.28214e-05
044402,23674180,2.25184e-05
045000,23988798,2.22174e-05
045602,23780638,2.19252e-05
046208,24091880,2.16348e-05
046818,24403608,2.13531e-05
047432,23924903,2.10793e-05
048050,23725476,2.08074e-05
048672,24028853,2.05439e-05
049298,24331553,2.0282e-05
049928,24090631,2.00281e-05
050562,23663174,1.97754e-05
051200,23957224,1.9531e-05
051842,24254435,1.92882e-05
052488,24024645,1.90464e-05
053138,24316971,1.88128e-05
053792,23764042,1.85865e-05
054450,24050975,1.83615e-05
055778,24041538,1.79257e-05
056448,24324692,1.77126e-05
057800,23573919,1.72988e-05
058482,23845474,1.70936e-05
059858,24401941,1.67041e-05
060552,24070941,1.65134e-05
061952,23703786,1.61368e-05
062658,23970243,1.59554e-05
063368,24238188,1.57751e-05
064800,24190949,1.54289e-05
065522,24455369,1.52572e-05
066978,23520378,1.49274e-05
067712,23777565,1.47641e-05
068450,24029371,1.46067e-05
069938,24545253,1.4295e-05
070688,24199631,1.41459e-05
071442,23468625,1.39968e-05
072962,23960250,1.37024e-05
073728,24207537,1.35616e-05
074498,23781690,1.34211e-05
075272,24025026,1.32816e-05
076832,24516534,1.30151e-05
077618,23876875,1.28828e-05
078408,24118066,1.2751e-05
080000,23953073,1.25e-05
080802,24189780,1.23751e-05
081608,24427945,1.22512e-05
082418,24665552,1.21318e-05
083232,24904516,1.20099e-05
084872,23575453,1.17805e-05
085698,23804588,1.16645e-05
086528,24030287,1.15536e-05
087362,24259330,1.14433e-05
088200,24486997,1.13335e-05
089888,24265381,1.11202e-05
090738,24490457,1.10167e-05
091592,23764533,1.09137e-05
092450,23985174,1.08157e-05
093312,24203109,1.07136e-05
094178,23675702,1.06159e-05
095922,24076422,1.0424e-05
096800,24070206,1.03284e-05
097682,24029772,1.02333e-05
098568,24050592,1.01429e-05
099458,24068836,1.00531e-05
100352,24084480,9.96352e-06
101250,24097500,9.87432e-06
102152,24005720,9.78578e-06
103968,24016608,9.61409e-06
104882,24017978,9.53089e-06
105800,24016600,9.44806e-06
106722,24012450,9.36968e-06
107648,24005504,9.28784e-06
108578,24070624,9.20633e-06
109512,24092640,9.12925e-06
110450,24078100,9.0525e-06
111392,24060672,8.97607e-06
112338,24040332,8.89996e-06
113288,24017056,8.82418e-06
114242,24010884,8.75168e-06
115200,24076800,8.67768e-06
116162,24045534,8.60669e-06
117128,24011240,8.5366e-06
118098,24091992,8.46655e-06
119072,24052544,8.39679e-06
120050,24010000,8.32708e-06
121032,24085368,8.26202e-06
122018,24037546,8.19311e-06
123008,23993288,8.1277e-06
125000,24000000,7.99979e-06
126002,24066382,7.93603e-06
127008,24004512,7.87228e-06
128018,24067384,7.80914e-06
129032,23999952,7.74919e-06
130050,24059250,7.68701e-06
131072,23986176,7.62765e-06
132098,24041836,7.56878e-06
133128,24096070,7.50765e-06
134162,24014998,7.45327e-06
135200,24065600,7.39582e-06
136242,23978592,7.33816e-06
137288,24025400,7.28073e-06
138338,24070812,7.22738e-06
139392,23975424,7.17061e-06
140450,24016950,7.11767e-06
141512,24057040,7.06492e-06
142578,24095682,7.01236e-06
143648,23989216,6.96e-06
144722,24023852,6.90784e-06
145800,24057000,6.8561e-06
146882,24088648,6.80785e-06
147968,23970816,6.75648e-06
149058,23998338,6.70842e-06
150152,24024320,6.65759e-06
151250,24048750,6.61004e-06
152352,24071616,6.56269e-06
153458,24092906,6.51589e-06
154568,23959962,6.46813e-06
155682,23975028,6.42182e-06
156800,23990400,6.37593e-06
157922,24004144,6.32961e-06
159048,24016248,6.28706e-06
160178,24026700,6.24085e-06
161312,24035488,6.1986e-06
162450,24042600,6.15293e-06
163592,24048024,6.11098e-06
164738,24051748,6.06896e-06
165888,24053760,6.02669e-06
167042,24054048,5.98577e-06
168200,24052600,5.94418e-06
169362,24049404,5.90294e-06
170528,24044448,5.86185e-06
171698,24037720,5.8208e-06
172872,24029208,5.78334e-06
174050,24018900,5.74246e-06
175232,24006784,5.70535e-06
176418,23992848,5.66802e-06
177608,23977080,5.6279e-06
178802,23959468,5.59117e-06
180000,23940000,5.55435e-06
181202,24076282,5.51766e-06
182408,24077856,5.48129e-06
183618,24053958,5.44484e-06
184832,24028160,5.40871e-06
186050,24000450,5.3725e-06
187272,23970816,5.33661e-06
188498,23939246,5.30395e-06
189728,24086128,5.26809e-06
190962,24061212,5.23583e-06
192200,24025000,5.20021e-06
193442,23986808,5.16797e-06
194688,23946624,5.13592e-06
195938,24063466,5.10074e-06
197192,24057424,5.0688e-06
198450,24012450,5.03697e-06
199712,23965440,5.00543e-06
200978,23916382,4.97379e-06
202248,24067512,4.94226e-06
203522,24015596,4.91083e-06
204800,23961600,4.88266e-06
206082,23917064,4.85161e-06
207368,24054688,4.82047e-06
208658,23995670,4.78942e-06
209952,23934528,4.76161e-06
211250,24082500,4.73076e-06
212552,24018376,4.70311e-06
213858,23952096,4.67475e-06
215168,24080078,4.64498e-06
216482,24029502,4.61759e-06
217800,23958000,4.59028e-06
219122,23940226,4.56305e-06
220448,24028832,4.5359e-06
221778,23952024,4.50869e-06
223112,24096096,4.48082e-06
224450,24016150,4.45494e-06
225792,23933952,4.4274e-06
227138,24076628,4.40154e-06
228488,23991240,4.37488e-06
229842,23903568,4.3483e-06
231200,24044800,4.3246e-06
232562,23953886,4.29817e-06
233928,24094458,4.27191e-06
235298,24000396,4.24851e-06
236672,23903872,4.22232e-06
238050,24043050,4.19914e-06
239432,23943200,4.17602e-06
240818,24081800,4.15005e-06
242208,23978592,4.1269e-06
243602,23872996,4.10399e-06
245000,24010000,4.08114e-06
246402,23900994,4.05812e-06
247808,24037376,4.03275e-06
249218,23924928,4.0101e-06
250632,24060672,3.98734e-06
252050,23944750,3.96482e-06
253472,24079840,3.94236e-06
254898,23960412,3.92224e-06
256328,24094832,3.9003e-06
257762,23971866,3.87802e-06
259200,23999216,3.85581e-06
260642,23979064,3.8363e-06
262088,23889208,3.81421e-06
263538,23981958,3.79218e-06
264992,23863058,3.77274e-06
266450,23980500,3.75093e-06
267912,23856650,3.73185e-06
269378,23974642,3.71007e-06
270848,23971152,3.69077e-06
272322,23964336,3.67201e-06
273800,24074798,3.6504e-06
275282,23949534,3.63142e-06
276768,24078816,3.61265e-06
278258,23930188,3.59105e-06
279752,24058672,3.57239e-06
281250,23906250,3.55377e-06
282752,24033920,3.53504e-06
284258,23877672,3.51652e-06
285768,24004512,3.4979e-06
287282,23844406,3.47948e-06
288800,23970400,3.46095e-06
290322,24069590,3.44262e-06
291848,23931536,3.42419e-06
293378,24056996,3.40597e-06
294912,23887872,3.38963e-06
296450,24012450,3.37214e-06
297992,23839360,3.3539e-06
299538,23963040,3.33586e-06
301088,24087040,3.32021e-06
302642,23908718,3.30238e-06
304200,24031800,3.28693e-06
305762,23849436,3.26907e-06
307328,23971584,3.2537e-06
308898,24043948,3.23593e-06
310472,23906344,3.22064e-06
312050,24027850,3.20296e-06
313632,23836032,3.18774e-06
315218,23956568,3.17016e-06
316808,24077408,3.15502e-06
318402,23880150,3.13991e-06
320000,24000000,3.12499e-06
321602,23798548,3.10744e-06
323208,23917392,3.09245e-06
324818,24036532,3.07764e-06
326432,23829536,3.06272e-06
328050,23947650,3.04784e-06
329672,24066056,3.03268e-06
331298,23853456,3.01817e-06
332928,23970816,3.00122e-06
334562,24088432,2.98649e-06
336200,23870200,2.97427e-06
337842,23986782,2.9596e-06
339488,23870792,2.94512e-06
341138,23879660,2.93053e-06
342792,23995440,2.91597e-06
344450,23768480,2.9016e-06
346112,23881728,2.88718e-06
347778,23996682,2.87447e-06
349448,23796264,2.8606e-06
351122,23876296,2.84644e-06
352800,23990400,2.83209e-06
354482,23913980,2.82019e-06
356168,23863256,2.80605e-06
357858,23976486,2.7942e-06
359552,24089984,2.77999e-06
361250,23842500,2.76595e-06
362952,23954832,2.75419e-06
364658,24067428,2.74008e-06
366368,23813920,2.72837e-06
368082,23925330,2.71656e-06
369800,24037000,2.70281e-06
371522,23777408,2.69118e-06
373248,23887872,2.67723e-06
374978,23998592,2.66566e-06
376712,23826584,2.65353e-06
378450,23842350,2.6404e-06
380192,23952096,2.6289e-06
381938,24062094,2.61701e-06
383688,23788656,2.60599e-06
385442,23897404,2.59227e-06
387200,24006400,2.58088e-06
388962,23726682,2.56952e-06
390728,23834408,2.55831e-06
392498,23942378,2.547e-06
394272,24050592,2.53553e-06
396050,23763000,2.52445e-06
397832,23869920,2.51321e-06
399618,23977080,2.502e-06
401408,24084480,2.49025e-06
403202,23788918,2.47965e-06
405000,23895000,2.46851e-06
406802,24001318,2.45753e-06
408608,23778264,2.44645e-06
410418,23804244,2.43538e-06
412232,23909456,2.42435e-06
414050,24014900,2.41333e-06
415872,23704704,2.40241e-06
417698,23808786,2.39301e-06
419528,23913096,2.38266e-06
421362,24017634,2.37174e-06
423200,23699200,2.36085e-06
425042,23802352,2.35207e-06
426888,23905728,2.34133e-06
428738,24009328,2.33064e-06
430592,23697744,2.3219e-06
432450,23784750,2.31125e-06
434312,23887160,2.3005e-06
436178,23989790,2.29173e-06
438048,24070592,2.28123e-06
439922,23755788,2.27271e-06
441800,23857200,2.26205e-06
443682,23958828,2.25353e-06
445568,24060672,2.24294e-06
447458,23715274,2.23448e-06
449352,23815656,2.22392e-06
451250,23916250,2.21551e-06
453152,24017056,2.20498e-06
455058,23663016,2.1966e-06
456968,23762336,2.1874e-06
458882,23861864,2.17778e-06
460800,23961600,2.16939e-06
462722,24061544,2.16091e-06
464648,23697048,2.15068e-06
466578,23795478,2.14235e-06
468512,23894112,2.13409e-06
470450,23992950,2.12376e-06
472392,24034870,2.11553e-06
474338,23716900,2.10733e-06
476288,23814400,2.09914e-06
478242,23912100,2.08889e-06
480200,24010000,2.08074e-06
482162,23806560,2.0726e-06
484128,23722272,2.06448e-06
486098,23818802,2.05637e-06
488072,23915528,2.04828e-06
490050,24012450,2.04008e-06
492032,23725648,2.03151e-06
494018,23712864,2.02398e-06
496008,23808384,2.01595e-06
498002,23904096,2.0072e-06
500000,18581232,1.99995e-06
