000002,10100440,0.5
000008,10102033,0.125
000018,10109959,0.0555554
000032,10116057,0.03125
000050,10115361,0.02
000072,10114681,0.0138888
000098,10110164,0.0102041
000128,10134993,0.0078125
000162,10151911,0.00617283
000200,10134321,0.005
000242,10130748,0.00413221
000288,10137769,0.00347219
000338,10150674,0.00295857
000392,10128917,0.00255098
000450,10141906,0.00222218
000512,10147873,0.00195312
000578,10153761,0.00173007
000648,10166185,0.00154318
000722,10193235,0.00138501
000800,10150441,0.00125
000882,10180025,0.00113378
000968,10208089,0.00103303
001058,10227204,0.000945167
001152,10221745,0.000868027
001250,10220676,0.000799998
001352,10213061,0.000739623
001458,10199494,0.000685866
001568,10217929,0.000637744
001682,10183728,0.000594504
001800,10163761,0.000555544
001922,10198195,0.000520283
002048,10258497,0.000488281
002178,10285672,0.000459133
002312,10271129,0.000432503
002450,10223921,0.00040815
002592,10252729,0.00038578
002738,10211446,0.000365227
002888,10264029,0.000346239
003042,10288123,0.000328728
003200,10288081,0.000312499
003362,10259226,0.000297436
003528,10229061,0.000283433
003698,10223208,0.000270397
003872,10363497,0.000258256
004050,10236466,0.000246908
004232,10332521,0.000236292
004418,10265318,0.000226334
004608,10335841,0.000217007
004802,10228359,0.000208243
005000,10255101,0.0002
005202,10393699,0.000192217
005408,10391577,0.000184896
005618,10208013,0.000177982
005832,10302337,0.000171458
006050,10251836,0.000165274
006272,10326961,0.000159435
006498,10132572,0.000153878
006728,10172936,0.000148626
006962,10193864,0.000143634
007200,10081407,0.000138878
007442,10275545,0.000134364
007688,10264482,0.000130069
007938,10252388,0.000125975
008192,10220500,0.00012207
008450,10187462,0.000118333
008712,10351786,0.000114776
008978,10283323,0.000111377
009248,10227988,0.000108119
009522,10367317,0.000105009
009800,10274897,0.00010203
010082,10185302,9.91793e-05
010368,10311055,9.64383e-05
010658,10181350,9.38174e-05
010952,10070866,9.13002e-05
011250,10170539,8.8884e-05
011552,10183793,8.65533e-05
011858,10280860,8.43298e-05
012168,10128374,8.21759e-05
012482,10214754,8.01125e-05
012800,10201657,7.81249e-05
013122,10268326,7.6199e-05
013448,10091842,7.43589e-05
013778,10335427,7.25765e-05
014112,10106511,7.08519e-05
014450,10160800,6.91957e-05
014792,10137108,6.75931e-05
015138,10171912,6.60558e-05
015488,10402684,6.45589e-05
015842,10143240,6.31126e-05
016200,10163261,6.17267e-05
016562,10112651,6.03779e-05
016928,10134046,5.90675e-05
017298,10351579,5.78024e-05
017672,10038059,5.65835e-05
018050,10249844,5.53977e-05
018432,10256701,5.42462e-05
018818,10176980,5.31375e-05
019208,10159679,5.20604e-05
019602,10365050,5.10141e-05
020000,10017982,4.99999e-05
020402,10216317,4.90047e-05
020808,10415935,4.80494e-05
021218,10072537,4.71225e-05
021632,10265297,4.62239e-05
022050,10237711,4.53435e-05
022472,10070938,4.44907e-05
022898,10016970,4.36645e-05
023328,10198148,4.28644e-05
023762,10385210,4.20802e-05
024200,10012050,4.13136e-05
024642,10192142,4.05801e-05
025088,10373226,3.98541e-05
025538,10297358,3.91521e-05
025992,10088228,3.84652e-05
026450,10261522,3.7801e-05
026912,10191549,3.71519e-05
027378,10365607,3.65247e-05
027848,10191654,3.59043e-05
028322,10088486,3.53047e-05
028800,10255768,3.47192e-05
029282,10423443,3.41464e-05
029768,10336216,3.35872e-05
030258,10081220,3.30481e-05
030752,10242689,3.25138e-05
031250,10119131,3.19997e-05
031752,10277628,3.14896e-05
032258,10440135,3.09983e-05
032768,10223415,3.05136e-05
033282,10108593,3.00389e-05
033800,10264298,2.95833e-05
034322,10420765,2.91311e-05
034848,10577351,2.86901e-05
035378,9969711,2.82601e-05
035912,10118433,2.78405e-05
036450,10266258,2.74315e-05
036992,10417671,2.70259e-05
037538,10278792,2.66373e-05
038088,10428434,2.62522e-05
038642,10167745,2.58754e-05
039200,10311859,2.55037e-05
039762,10134546,2.51482e-05
040328,10275496,2.47948e-05
040898,10419278,2.44504e-05
041472,10563574,2.41092e-05
042050,9899724,2.37771e-05
042632,10036420,2.34543e-05
043218,10171209,2.31333e-05
043808,10307290,2.28214e-05
044402,10444619,2.25184e-05
045000,10238754,2.22174e-05
045602,10372838,2.19252e-05
046208,10066598,2.16348e-05
046818,10197090,2.13531e-05
047432,10328897,2.10793e-05
048050,10140149,2.08074e-05
048672,10268256,2.05439e-05
049298,10399411,2.0282e-05
049928,10528296,2.00281e-05
050562,10105727,1.97754e-05
051200,10230243,1.9531e-05
051842,9984555,1.92882e-05
052488,10107201,1.90464e-05
053138,10230305,1.88128e-05
053792,10353788,1.85865e-05
054450,10478830,1.83615e-05
055778,10383145,1.79257e-05
056448,10022754,1.77126e-05
057800,10259575,1.72988e-05
058482,10377700,1.70936e-05
059858,10216717,1.67041e-05
060552,10335464,1.65134e-05
061952,10569144,1.61368e-05
062658,10060407,1.59554e-05
063368,10173694,1.57751e-05
064800,10029298,1.54289e-05
065522,10137907,1.52572e-05
066978,10360357,1.49274e-05
067712,10471119,1.47641e-05
068450,10583924,1.46067e-05
069938,10278216,1.4295e-05
070688,9949801,1.41459e-05
071442,10053284,1.39968e-05
072962,10263148,1.37024e-05
073728,10371229,1.35616e-05
074498,10478311,1.34211e-05
075272,10582171,1.32816e-05
076832,10398891,1.30151e-05
077618,10503786,1.28828e-05
078408,10608186,1.2751e-05
080000,10099722,1.25e-05
080802,10198882,1.23751e-05
081608,10299799,1.22512e-05
082418,10399091,1.21318e-05
083232,10499267,1.20099e-05
084872,10220917,1.17805e-05
085698,10316988,1.16645e-05
086528,10417489,1.15536e-05
087362,10515166,1.14433e-05
088200,10615544,1.13335e-05
089888,10218796,1.11202e-05
090738,10313434,1.10167e-05
091592,9977138,1.09137e-05
092450,10068386,1.08157e-05
093312,10159297,1.07136e-05
094178,10252877,1.06159e-05
095922,10071810,1.0424e-05
096800,10067200,1.03284e-05
097682,10061246,1.02333e-05
098568,10053936,1.01429e-05
099458,10045258,1.00531e-05
100352,10035200,9.96352e-06
101250,10023750,9.87432e-06
102152,10010896,9.78578e-06
103968,10084896,9.61409e-06
104882,10068672,9.53089e-06
105800,10051000,9.44806e-06
106722,10031868,9.36968e-06
107648,10011264,9.28784e-06
108578,10069514,9.20633e-06
109512,10075104,9.12925e-06
110450,10050950,9.0525e-06
111392,10025280,8.97607e-06
112338,9998082,8.89996e-06
113288,10082632,8.82418e-06
114242,10053296,8.75168e-06
115200,10022400,8.67768e-06
116162,9989932,8.60669e-06
117128,10073008,8.5366e-06
118098,10038330,8.46655e-06
119072,10002048,8.39679e-06
120050,10084200,8.32708e-06
121032,10045656,8.26202e-06
122018,10005476,8.19311e-06
123008,10086656,8.1277e-06
125000,10000000,7.99979e-06
126002,10080160,7.93603e-06
127008,10033632,7.87228e-06
128018,9985404,7.80914e-06
129032,10064496,7.74919e-06
130050,10013850,7.68701e-06
131072,10092544,7.62765e-06
132098,10039448,7.56878e-06
133128,9984600,7.50765e-06
134162,10062150,7.45327e-06
135200,10004800,7.39582e-06
136242,10081908,7.33816e-06
137288,10022024,7.28073e-06
138338,10021162,7.22738e-06
139392,10036224,7.17061e-06
140450,9971950,7.11767e-06
141512,10047352,7.06492e-06
142578,9980460,7.01236e-06
143648,10055360,6.96e-06
144722,9985818,6.90784e-06
145800,10060200,6.8561e-06
146882,9987976,6.80785e-06
147968,10061824,6.75648e-06
149058,9986886,6.70842e-06
150152,10060184,6.65759e-06
151250,9982500,6.61004e-06
152352,10055232,6.56269e-06
153458,9974770,6.51589e-06
154568,10046920,6.46813e-06
155682,9963648,6.42182e-06
156800,10035200,6.37593e-06
157922,9949086,6.32961e-06
159048,10020024,6.28706e-06
160178,10091214,6.24085e-06
161312,10001344,6.1986e-06
162450,10071900,6.15293e-06
163592,9979112,6.11098e-06
164738,10049018,6.06896e-06
165888,9953280,6.02669e-06
167042,10022520,5.98577e-06
168200,10092000,5.94418e-06
169362,9992358,5.90294e-06
170528,10061152,5.86185e-06
171698,9958484,5.8208e-06
172872,10026576,5.78334e-06
174050,10090850,5.74246e-06
175232,9988224,5.70535e-06
176418,10055826,5.66802e-06
177608,9946048,5.6279e-06
178802,10012912,5.59117e-06
180000,10080000,5.55435e-06
181202,9966110,5.51766e-06
182408,10032440,5.48129e-06
183618,9982704,5.44484e-06
184832,9980928,5.40871e-06
186050,10046700,5.3725e-06
187272,9925416,5.33661e-06
188498,9990394,5.30395e-06
189728,10055584,5.26809e-06
190962,9930024,5.23583e-06
192200,9994400,5.20021e-06
193442,10058984,5.16797e-06
194688,9929088,5.13592e-06
195938,9992838,5.10074e-06
197192,10056792,5.0688e-06
198450,9922500,5.03697e-06
199712,9985600,5.00543e-06
200978,10048900,4.97379e-06
202248,9910152,4.94226e-06
203522,9972578,4.91083e-06
204800,10035200,4.88266e-06
206082,9979064,4.85161e-06
207368,9953664,4.82047e-06
208658,10015584,4.78942e-06
209952,10077696,4.76161e-06
211250,9928750,4.73076e-06
212552,9989944,4.70311e-06
213858,10051326,4.67475e-06
215168,9897728,4.64498e-06
216482,9958172,4.61759e-06
217800,10018800,4.59028e-06
219122,10079612,4.56305e-06
220448,9920160,4.5359e-06
221778,9980010,4.50869e-06
223112,10040040,4.48082e-06
224450,9904314,4.45494e-06
225792,9934848,4.4274e-06
227138,9994072,4.40154e-06
228488,10053472,4.37488e-06
229842,9883206,4.3483e-06
231200,9941600,4.3246e-06
232562,10000166,4.29817e-06
233928,10058904,4.27191e-06
235298,9882516,4.24851e-06
236672,9940224,4.22232e-06
238050,9998100,4.19914e-06
239432,10056144,4.17602e-06
240818,9873538,4.15005e-06
242208,9930528,4.1269e-06
243602,9987682,4.10399e-06
245000,10045000,4.08114e-06
246402,9856082,4.05812e-06
247808,9912320,4.03275e-06
249218,9968720,4.0101e-06
250632,10025280,3.98734e-06
252050,10082000,3.96482e-06
253472,9885408,3.94236e-06
254898,9941022,3.92224e-06
256328,9996792,3.9003e-06
257762,10052718,3.87802e-06
259200,9849600,3.85581e-06
260642,9904396,3.8363e-06
262088,9959344,3.81421e-06
263538,10014444,3.79218e-06
264992,10069696,3.77274e-06
266450,9858650,3.75093e-06
267912,9912744,3.73185e-06
269378,9966986,3.71007e-06
270848,10021376,3.69077e-06
272322,10075914,3.67201e-06
273800,9856800,3.6504e-06
275282,9910152,3.63142e-06
276768,9963648,3.61265e-06
278258,10017288,3.59105e-06
279752,10071072,3.57239e-06
281250,9843750,3.55377e-06
282752,9896320,3.53504e-06
284258,9949030,3.51652e-06
285768,10001880,3.4979e-06
287282,10054870,3.47948e-06
288800,9819200,3.46095e-06
290322,9870948,3.44262e-06
291848,9922832,3.42419e-06
293378,9974852,3.40597e-06
294912,10027008,3.38963e-06
296450,10079300,3.37214e-06
297992,9833736,3.3539e-06
299538,9884754,3.33586e-06
301088,9935904,3.32021e-06
302642,9987186,3.30238e-06
304200,10038600,3.28693e-06
305762,10090146,3.26907e-06
307328,9834496,3.2537e-06
308898,9884736,3.23593e-06
310472,9935104,3.22064e-06
312050,9985600,3.20296e-06
313632,10036224,3.18774e-06
315218,10086976,3.17016e-06
316808,9821048,3.15502e-06
318402,9870462,3.13991e-06
320000,9920000,3.12499e-06
321602,9969662,3.10744e-06
323208,10019448,3.09245e-06
324818,10069358,3.07764e-06
326432,9792960,3.06272e-06
328050,9841500,3.04784e-06
329672,9890160,3.03268e-06
331298,9938940,3.01817e-06
332928,9987840,3.00122e-06
334562,10036860,2.98649e-06
336200,10086000,2.97427e-06
337842,9797418,2.9596e-06
339488,9845152,2.94512e-06
341138,9893002,2.93053e-06
342792,9940968,2.91597e-06
344450,9989050,2.9016e-06
346112,10037248,2.88718e-06
347778,10085562,2.87447e-06
349448,9784544,2.8606e-06
351122,9831416,2.84644e-06
352800,9878400,2.83209e-06
354482,9925496,2.82019e-06
356168,9972704,2.80605e-06
357858,10020024,2.7942e-06
359552,10067456,2.77999e-06
361250,9753750,2.76595e-06
362952,9799704,2.75419e-06
364658,9845766,2.74008e-06
366368,9891936,2.72837e-06
368082,9938214,2.71656e-06
369800,9984600,2.70281e-06
371522,10031094,2.69118e-06
373248,10077696,2.67723e-06
374978,9749428,2.66566e-06
376712,9794512,2.65353e-06
378450,9839700,2.6404e-06
380192,9884992,2.6289e-06
381938,9930388,2.61701e-06
383688,9975888,2.60599e-06
385442,10021492,2.59227e-06
387200,10067200,2.58088e-06
388962,9724050,2.56952e-06
390728,9768200,2.55831e-06
392498,9812450,2.547e-06
394272,9856800,2.53553e-06
396050,9901250,2.52445e-06
397832,9945800,2.51321e-06
399618,9990450,2.502e-06
401408,10035200,2.49025e-06
403202,10080050,2.47965e-06
405000,9720000,2.46851e-06
406802,9763248,2.45753e-06
408608,9806592,2.44645e-06
410418,9850032,2.43538e-06
412232,9893568,2.42435e-06
414050,9937200,2.41333e-06
415872,9980928,2.40241e-06
417698,10024752,2.39301e-06
419528,10068672,2.38266e-06
421362,9691326,2.37174e-06
423200,9733600,2.36085e-06
425042,9775966,2.35207e-06
426888,9818424,2.34133e-06
428738,9860974,2.33064e-06
430592,9903616,2.3219e-06
432450,9946350,2.31125e-06
434312,9989176,2.3005e-06
436178,10032094,2.29173e-06
438048,10075104,2.28123e-06
439922,9678284,2.27271e-06
441800,9719600,2.26205e-06
443682,9761004,2.25353e-06
445568,9802496,2.24294e-06
447458,9844076,2.23448e-06
449352,9885744,2.22392e-06
451250,9927500,2.21551e-06
453152,9969344,2.20498e-06
455058,10011276,2.1966e-06
456968,10053296,2.1874e-06
458882,10032110,2.17778e-06
460800,9676800,2.16939e-06
462722,9717162,2.16091e-06
464648,9757608,2.15068e-06
466578,9798138,2.14235e-06
468512,9838752,2.13409e-06
470450,9879450,2.12376e-06
472392,9920232,2.11553e-06
474338,9961098,2.10733e-06
476288,10002048,2.09914e-06
478242,10043082,2.08889e-06
480200,10084200,2.08074e-06
482162,9643240,2.0726e-06
484128,9682560,2.06448e-06
486098,9721960,2.05637e-06
488072,9761440,2.04828e-06
490050,9801000,2.04008e-06
492032,9840640,2.03151e-06
494018,9880360,2.02398e-06
496008,9920160,2.01595e-06
498002,9960040,2.0072e-06
500000,7742180,1.99995e-06
