# Blender v2.77 (sub 0) OBJ File: 'HealthItem.blend'
# www.blender.org
mtllib HealthItem.mtl
o Cube
v -1.500000 -1.500000 1.500000
v -1.500000 -1.500000 -1.500000
v 1.500000 -1.500000 -1.500000
v 1.500000 -1.500000 1.500000
v -1.500001 1.500000 1.499999
v -1.499999 1.500000 -1.500001
v 1.500000 1.500000 -1.500000
v 1.500000 1.500000 1.500000
v -1.500000 -1.000000 1.500000
v -1.500000 -0.300000 1.500000
v -1.500000 0.300000 1.500000
v -1.500001 1.000000 1.499999
v -1.500000 -1.000000 -1.500000
v -1.500000 -0.300000 -1.500000
v -1.500000 0.300000 -1.500000
v -1.499999 1.000000 -1.500001
v 1.500000 -1.000000 -1.500000
v 1.500000 -0.300000 -1.500000
v 1.500000 0.300000 -1.500000
v 1.500000 1.000000 -1.500000
v 1.500000 -1.000000 1.500000
v 1.500000 -0.300000 1.500000
v 1.500000 0.300000 1.500000
v 1.500000 1.000000 1.500000
v -0.900000 -1.500000 1.500000
v -0.300000 -1.500000 1.500000
v 0.300000 -1.500000 1.500000
v 0.900000 -1.500000 1.500000
v -0.900000 -1.500000 -1.500000
v -0.300000 -1.500000 -1.500000
v 0.300000 -1.500000 -1.500000
v 0.900000 -1.500000 -1.500000
v -0.900001 1.500000 1.499999
v -0.300000 1.500000 1.500000
v 0.300000 1.500000 1.500000
v 0.900000 1.500000 1.500000
v -0.899999 1.500000 -1.500000
v -0.299999 1.500000 -1.500000
v 0.300001 1.500000 -1.500000
v 0.900001 1.500000 -1.500000
v -0.900001 1.000000 1.500000
v -0.300000 1.000000 1.500000
v 0.300000 1.000000 1.500000
v 0.900000 1.000000 1.500000
v -0.900000 0.300000 1.500000
v -0.300000 0.300000 1.500000
v 0.300000 0.300000 1.500000
v 0.900000 0.300000 1.500000
v -0.900000 -0.300000 1.500000
v -0.300000 -0.300000 1.500000
v 0.300000 -0.300000 1.500000
v 0.900000 -0.300000 1.500000
v -0.900000 -1.000000 1.500000
v -0.300000 -1.000000 1.500000
v 0.300000 -1.000000 1.500000
v 0.900000 -1.000000 1.500000
v -0.900000 -1.000000 -1.500000
v -0.300000 -1.000000 -1.500000
v 0.300000 -1.000000 -1.500000
v 0.900000 -1.000000 -1.500000
v -0.900000 -0.300000 -1.500000
v -0.300000 -0.300000 -1.500000
v 0.300000 -0.300000 -1.500000
v 0.900000 -0.300000 -1.500000
v -0.899999 0.300000 -1.500000
v -0.300000 0.300000 -1.500000
v 0.300000 0.300000 -1.500000
v 0.900000 0.300000 -1.500000
v -0.899999 1.000000 -1.500000
v -0.299999 1.000000 -1.500000
v 0.300001 1.000000 -1.500000
v 0.900000 1.000000 -1.500000
v -1.500000 -1.500000 1.000000
v -1.500000 -1.500000 0.300000
v -1.500000 -1.500000 -0.300000
v -1.500000 -1.500000 -1.000000
v 1.500000 -1.500000 -1.000000
v 1.500000 -1.500000 -0.300000
v 1.500000 -1.500000 0.300000
v 1.500000 -1.500000 1.000000
v -1.500000 1.500000 0.999999
v -1.500000 1.500000 0.299999
v -1.500000 1.500000 -0.300001
v -1.499999 1.500000 -1.000001
v 1.500000 1.500000 -1.000000
v 1.500000 1.500000 -0.300000
v 1.500000 1.500000 0.300000
v 1.500000 1.500000 1.000000
v 1.500000 -1.000000 -1.000000
v 1.500000 -1.000000 -0.300000
v 1.500000 -1.000000 0.300000
v 1.500000 -1.000000 1.000000
v 1.500000 -0.300000 -1.000000
v 1.500000 -0.300000 -0.300000
v 1.500000 -0.300000 0.300000
v 1.500000 -0.300000 1.000000
v 1.500000 0.300000 -1.000000
v 1.500000 0.300000 -0.300000
v 1.500000 0.300000 0.300000
v 1.500000 0.300000 1.000000
v 1.500000 1.000000 -1.000000
v 1.500000 1.000000 -0.300000
v 1.500000 1.000000 0.300000
v 1.500000 1.000000 1.000000
v -1.500000 -1.000000 1.000000
v -1.500000 -1.000000 0.300000
v -1.500000 -1.000000 -0.300000
v -1.500000 -1.000000 -1.000000
v -1.500000 -0.300000 1.000000
v -1.500000 -0.300000 0.300000
v -1.500000 -0.300000 -0.300000
v -1.500000 -0.300000 -1.000000
v -1.500000 0.300000 1.000000
v -1.500000 0.300000 0.299999
v -1.500000 0.300000 -0.300001
v -1.500000 0.300000 -1.000001
v -1.500000 1.000000 0.999999
v -1.500000 1.000000 0.299999
v -1.500000 1.000000 -0.300001
v -1.500000 1.000000 -1.000001
v -0.900000 1.500000 0.999999
v -0.900000 1.500000 0.299999
v -0.900000 1.500000 -0.300001
v -0.899999 1.500000 -1.000001
v -0.300000 1.500000 1.000000
v -0.300000 1.500000 0.300000
v -0.300000 1.500000 -0.300000
v -0.299999 1.500000 -1.000000
v 0.300000 1.500000 1.000000
v 0.300000 1.500000 0.300000
v 0.300000 1.500000 -0.300000
v 0.300001 1.500000 -1.000000
v 0.900000 1.500000 1.000000
v 0.900000 1.500000 0.300000
v 0.900000 1.500000 -0.300000
v 0.900000 1.500000 -1.000000
v -0.900000 -1.500000 -1.000000
v -0.900000 -1.500000 -0.300000
v -0.900000 -1.500000 0.300000
v -0.900000 -1.500000 1.000000
v -0.300000 -1.500000 -1.000000
v -0.300000 -1.500000 -0.300000
v -0.300000 -1.500000 0.300000
v -0.300000 -1.500000 1.000000
v 0.300000 -1.500000 -1.000000
v 0.300000 -1.500000 -0.300000
v 0.300000 -1.500000 0.300000
v 0.300000 -1.500000 1.000000
v 0.900000 -1.500000 -1.000000
v 0.900000 -1.500000 -0.300000
v 0.900000 -1.500000 0.300000
v 0.900000 -1.500000 1.000000
vn 0.0000 -1.0000 0.0000
vn 0.0000 1.0000 0.0000
vn -1.0000 0.0000 -0.0000
vn 0.0000 -0.0000 -1.0000
vn 1.0000 -0.0000 0.0000
vn 0.0000 0.0000 1.0000
usemtl Material
s off
f 32//1 77//1 149//1
f 136//2 7//2 40//2
f 84//3 16//3 120//3
f 40//4 20//4 72//4
f 88//5 24//5 104//5
f 28//6 21//6 56//6
f 36//6 24//6 8//6
f 48//6 24//6 44//6
f 52//6 23//6 48//6
f 52//6 21//6 22//6
f 80//5 21//5 4//5
f 96//5 21//5 92//5
f 96//5 23//5 22//5
f 100//5 24//5 23//5
f 60//4 3//4 32//4
f 64//4 17//4 60//4
f 68//4 18//4 64//4
f 72//4 19//4 68//4
f 108//3 2//3 76//3
f 112//3 13//3 108//3
f 116//3 14//3 112//3
f 120//3 15//3 116//3
f 16//4 65//4 15//4
f 69//4 66//4 65//4
f 71//4 68//4 67//4
f 14//4 65//4 61//4
f 14//4 57//4 13//4
f 61//4 58//4 57//4
f 63//4 60//4 59//4
f 13//4 29//4 2//4
f 57//4 30//4 29//4
f 58//4 31//4 30//4
f 59//4 32//4 31//4
f 9//6 49//6 10//6
f 53//6 50//6 49//6
f 55//6 52//6 51//6
f 10//6 45//6 11//6
f 11//6 41//6 12//6
f 45//6 42//6 41//6
f 47//6 44//6 43//6
f 12//6 33//6 5//6
f 41//6 34//6 33//6
f 34//6 43//6 35//6
f 35//6 44//6 36//6
f 1//6 53//6 9//6
f 25//6 54//6 53//6
f 26//6 55//6 54//6
f 27//6 56//6 55//6
f 6//4 69//4 16//4
f 37//4 70//4 69//4
f 38//4 71//4 70//4
f 39//4 72//4 71//4
f 124//2 6//2 84//2
f 128//2 37//2 124//2
f 132//2 38//2 128//2
f 136//2 39//2 132//2
f 2//1 137//1 76//1
f 29//1 141//1 137//1
f 141//1 31//1 145//1
f 31//1 149//1 145//1
f 148//1 28//1 27//1
f 147//1 152//1 148//1
f 145//1 150//1 146//1
f 144//1 27//1 26//1
f 25//1 144//1 26//1
f 140//1 143//1 144//1
f 138//1 141//1 142//1
f 73//1 25//1 1//1
f 74//1 140//1 73//1
f 74//1 138//1 139//1
f 76//1 138//1 75//1
f 36//2 129//2 35//2
f 133//2 130//2 129//2
f 135//2 132//2 131//2
f 35//2 125//2 34//2
f 34//2 121//2 33//2
f 121//2 126//2 122//2
f 127//2 124//2 123//2
f 33//2 81//2 5//2
f 121//2 82//2 81//2
f 122//2 83//2 82//2
f 123//2 84//2 83//2
f 12//3 113//3 11//3
f 117//3 114//3 113//3
f 119//3 116//3 115//3
f 11//3 109//3 10//3
f 10//3 105//3 9//3
f 109//3 106//3 105//3
f 111//3 108//3 107//3
f 9//3 73//3 1//3
f 105//3 74//3 73//3
f 106//3 75//3 74//3
f 107//3 76//3 75//3
f 20//5 97//5 19//5
f 101//5 98//5 97//5
f 99//5 104//5 100//5
f 19//5 93//5 18//5
f 18//5 89//5 17//5
f 93//5 90//5 89//5
f 95//5 92//5 91//5
f 17//5 77//5 3//5
f 89//5 78//5 77//5
f 78//5 91//5 79//5
f 91//5 80//5 79//5
f 7//5 101//5 20//5
f 85//5 102//5 101//5
f 86//5 103//5 102//5
f 87//5 104//5 103//5
f 5//3 117//3 12//3
f 81//3 118//3 117//3
f 82//3 119//3 118//3
f 83//3 120//3 119//3
f 8//2 133//2 36//2
f 133//2 87//2 134//2
f 134//2 86//2 135//2
f 135//2 85//2 136//2
f 152//1 4//1 28//1
f 151//1 80//1 152//1
f 151//1 78//1 79//1
f 150//1 77//1 78//1
f 32//1 3//1 77//1
f 136//2 85//2 7//2
f 84//3 6//3 16//3
f 40//4 7//4 20//4
f 88//5 8//5 24//5
f 28//6 4//6 21//6
f 36//6 44//6 24//6
f 48//6 23//6 24//6
f 52//6 22//6 23//6
f 52//6 56//6 21//6
f 80//5 92//5 21//5
f 96//5 22//5 21//5
f 96//5 100//5 23//5
f 100//5 104//5 24//5
f 60//4 17//4 3//4
f 64//4 18//4 17//4
f 68//4 19//4 18//4
f 72//4 20//4 19//4
f 108//3 13//3 2//3
f 112//3 14//3 13//3
f 116//3 15//3 14//3
f 120//3 16//3 15//3
f 16//4 69//4 65//4
f 69//4 70//4 66//4
f 71//4 72//4 68//4
f 14//4 15//4 65//4
f 14//4 61//4 57//4
f 61//4 62//4 58//4
f 63//4 64//4 60//4
f 13//4 57//4 29//4
f 57//4 58//4 30//4
f 58//4 59//4 31//4
f 59//4 60//4 32//4
f 9//6 53//6 49//6
f 53//6 54//6 50//6
f 55//6 56//6 52//6
f 10//6 49//6 45//6
f 11//6 45//6 41//6
f 45//6 46//6 42//6
f 47//6 48//6 44//6
f 12//6 41//6 33//6
f 41//6 42//6 34//6
f 34//6 42//6 43//6
f 35//6 43//6 44//6
f 1//6 25//6 53//6
f 25//6 26//6 54//6
f 26//6 27//6 55//6
f 27//6 28//6 56//6
f 6//4 37//4 69//4
f 37//4 38//4 70//4
f 38//4 39//4 71//4
f 39//4 40//4 72//4
f 124//2 37//2 6//2
f 128//2 38//2 37//2
f 132//2 39//2 38//2
f 136//2 40//2 39//2
f 2//1 29//1 137//1
f 29//1 30//1 141//1
f 141//1 30//1 31//1
f 31//1 32//1 149//1
f 148//1 152//1 28//1
f 147//1 151//1 152//1
f 145//1 149//1 150//1
f 144//1 148//1 27//1
f 25//1 140//1 144//1
f 140//1 139//1 143//1
f 138//1 137//1 141//1
f 73//1 140//1 25//1
f 74//1 139//1 140//1
f 74//1 75//1 138//1
f 76//1 137//1 138//1
f 36//2 133//2 129//2
f 133//2 134//2 130//2
f 135//2 136//2 132//2
f 35//2 129//2 125//2
f 34//2 125//2 121//2
f 121//2 125//2 126//2
f 127//2 128//2 124//2
f 33//2 121//2 81//2
f 121//2 122//2 82//2
f 122//2 123//2 83//2
f 123//2 124//2 84//2
f 12//3 117//3 113//3
f 117//3 118//3 114//3
f 119//3 120//3 116//3
f 11//3 113//3 109//3
f 10//3 109//3 105//3
f 109//3 110//3 106//3
f 111//3 112//3 108//3
f 9//3 105//3 73//3
f 105//3 106//3 74//3
f 106//3 107//3 75//3
f 107//3 108//3 76//3
f 20//5 101//5 97//5
f 101//5 102//5 98//5
f 99//5 103//5 104//5
f 19//5 97//5 93//5
f 18//5 93//5 89//5
f 93//5 94//5 90//5
f 95//5 96//5 92//5
f 17//5 89//5 77//5
f 89//5 90//5 78//5
f 78//5 90//5 91//5
f 91//5 92//5 80//5
f 7//5 85//5 101//5
f 85//5 86//5 102//5
f 86//5 87//5 103//5
f 87//5 88//5 104//5
f 5//3 81//3 117//3
f 81//3 82//3 118//3
f 82//3 83//3 119//3
f 83//3 84//3 120//3
f 8//2 88//2 133//2
f 133//2 88//2 87//2
f 134//2 87//2 86//2
f 135//2 86//2 85//2
f 152//1 80//1 4//1
f 151//1 79//1 80//1
f 151//1 150//1 78//1
f 150//1 149//1 77//1
usemtl Red
f 70//4 67//4 66//4
f 65//4 62//4 61//4
f 62//4 67//4 63//4
f 67//4 64//4 63//4
f 62//4 59//4 58//4
f 54//6 51//6 50//6
f 49//6 46//6 45//6
f 46//6 51//6 47//6
f 51//6 48//6 47//6
f 46//6 43//6 42//6
f 147//1 150//1 151//1
f 144//1 147//1 148//1
f 142//1 147//1 143//1
f 141//1 146//1 142//1
f 138//1 143//1 139//1
f 134//2 131//2 130//2
f 125//2 130//2 126//2
f 130//2 127//2 126//2
f 131//2 128//2 127//2
f 122//2 127//2 123//2
f 118//3 115//3 114//3
f 113//3 110//3 109//3
f 114//3 111//3 110//3
f 115//3 112//3 111//3
f 106//3 111//3 107//3
f 98//5 103//5 99//5
f 97//5 94//5 93//5
f 98//5 95//5 94//5
f 95//5 100//5 96//5
f 94//5 91//5 90//5
f 70//4 71//4 67//4
f 65//4 66//4 62//4
f 62//4 66//4 67//4
f 67//4 68//4 64//4
f 62//4 63//4 59//4
f 54//6 55//6 51//6
f 49//6 50//6 46//6
f 46//6 50//6 51//6
f 51//6 52//6 48//6
f 46//6 47//6 43//6
f 147//1 146//1 150//1
f 144//1 143//1 147//1
f 142//1 146//1 147//1
f 141//1 145//1 146//1
f 138//1 142//1 143//1
f 134//2 135//2 131//2
f 125//2 129//2 130//2
f 130//2 131//2 127//2
f 131//2 132//2 128//2
f 122//2 126//2 127//2
f 118//3 119//3 115//3
f 113//3 114//3 110//3
f 114//3 115//3 111//3
f 115//3 116//3 112//3
f 106//3 110//3 111//3
f 98//5 102//5 103//5
f 97//5 98//5 94//5
f 98//5 99//5 95//5
f 95//5 99//5 100//5
f 94//5 95//5 91//5
