# Blender v2.77 (sub 0) OBJ File: 'Player1.blend'
# www.blender.org
mtllib Player1.mtl
o Cube
v -0.338365 -0.657162 7.614655
v -1.034772 -0.657162 3.114655
v 0.965228 -0.657162 3.114656
v 0.268821 -0.657162 7.614656
v -0.034772 -0.086306 6.114655
v -0.534771 0.513694 3.114655
v 0.465228 0.513694 3.114656
v -0.034772 -0.657162 8.114655
v -0.034772 -0.657162 3.114655
v -0.034771 0.513694 3.114655
v -0.034771 -0.657163 0.114656
v 1.252179 -0.657163 0.114656
v -1.234771 -0.657163 0.114656
v -0.734770 1.013693 0.114655
v 0.752179 1.013693 0.114656
v 0.319576 0.679806 2.117899
v -0.380423 0.679806 2.117899
v -0.024774 1.520575 0.114765
v 0.526091 1.520575 0.114766
v -0.514773 1.520575 0.114765
v 0.325226 1.261687 1.668009
v -0.374774 1.261687 1.668008
v -0.027422 1.261699 1.668022
v -0.034770 -0.657055 -0.885344
v 1.252179 -0.657055 -0.885344
v -1.234770 -0.657055 -0.885344
v -0.734769 1.013802 -0.885345
v 0.752179 1.013802 -0.885344
v -0.514773 1.520683 -0.885235
v -0.024773 1.520683 -0.885235
v 0.526091 1.520683 -0.885234
v -0.734769 1.013910 -1.885345
v 0.752180 1.013910 -1.885344
v -0.034769 1.013910 -1.885344
v -0.514772 1.520791 -1.885235
v -0.024772 1.520791 -1.885235
v 0.526092 1.520791 -1.885234
v 1.862953 0.371702 3.045530
v 1.862953 0.412353 -1.005532
v 1.502400 0.088859 2.762687
v 1.170133 0.129510 -1.288375
v 1.502400 -0.476826 2.197001
v 1.170133 -0.436175 -1.854061
v 1.862953 -0.759669 1.914159
v 1.862953 -0.719018 -2.136904
v 2.223507 -0.476826 2.197001
v 2.555773 -0.436175 -1.854061
v 2.223507 0.088859 2.762687
v 2.555773 0.129510 -1.288375
v 8.529984 -0.164906 -1.427916
v 2.240472 -0.264906 -1.427916
v 2.240472 -0.064906 -1.427916
v 2.240472 -0.264906 1.218412
v 2.240472 -0.064906 1.218412
v 3.014074 1.570590 -2.249759
v 2.261073 0.195102 -0.849759
v 2.197956 0.258219 -0.849759
v 2.261073 0.195102 0.331307
v 2.197956 0.258219 0.331307
v 2.618951 -2.049929 -2.249759
v 2.178783 -0.544861 -0.849759
v 2.268044 -0.544860 -0.849759
v 2.178783 -0.544861 0.331307
v 2.268044 -0.544860 0.331307
v 1.308697 0.072942 -1.344944
v 1.862953 0.299216 -1.118670
v 1.308697 -0.379606 -1.797492
v 1.862953 -0.605881 -2.023767
v 2.417209 -0.379606 -1.797492
v 2.417209 0.072942 -1.344944
v 1.308697 0.072942 -1.591554
v 1.862953 0.299216 -1.365279
v 1.308697 -0.379606 -2.044102
v 1.862953 -0.605881 -2.270376
v 2.417209 -0.379606 -2.044102
v 2.417209 0.072942 -1.591554
v 1.862953 0.258565 2.932393
v 1.574511 0.032291 2.706119
v 1.574511 -0.420258 2.253570
v 1.862953 -0.646532 2.027296
v 2.151396 -0.420258 2.253570
v 2.151396 0.032291 2.706119
v 1.862953 0.258565 0.162110
v 1.574511 0.032291 -0.064164
v 1.574511 -0.420258 -0.516713
v 1.862953 -0.646532 -0.742987
v 2.151396 -0.420258 -0.516713
v 2.151396 0.032291 -0.064164
v 1.419548 0.027687 -1.450407
v 1.862953 0.208706 -1.269388
v 1.419548 -0.334352 -1.812446
v 1.862953 -0.515371 -1.993465
v 2.306358 -0.334352 -1.812446
v 2.306358 0.027687 -1.450407
v -1.853424 0.371702 3.045530
v -1.853424 0.412353 -1.005532
v -1.492870 0.088859 2.762687
v -1.160603 0.129510 -1.288375
v -1.492870 -0.476826 2.197001
v -1.160603 -0.436175 -1.854061
v -1.853424 -0.759669 1.914159
v -1.853424 -0.719018 -2.136904
v -2.213977 -0.476826 2.197001
v -2.546244 -0.436175 -1.854061
v -2.213977 0.088859 2.762687
v -2.546244 0.129510 -1.288375
v -8.520454 -0.164906 -1.427916
v -2.230942 -0.264906 -1.427916
v -2.230942 -0.064906 -1.427916
v -2.230942 -0.264906 1.218412
v -2.230942 -0.064906 1.218412
v -3.004544 1.570590 -2.249759
v -2.251543 0.195102 -0.849759
v -2.188426 0.258219 -0.849759
v -2.251543 0.195102 0.331307
v -2.188426 0.258219 0.331307
v -2.609421 -2.049929 -2.249759
v -2.169254 -0.544861 -0.849759
v -2.258514 -0.544860 -0.849759
v -2.169254 -0.544861 0.331307
v -2.258514 -0.544860 0.331307
v -1.299168 0.072942 -1.344944
v -1.853424 0.299216 -1.118670
v -1.299168 -0.379606 -1.797492
v -1.853424 -0.605881 -2.023767
v -2.407680 -0.379606 -1.797492
v -2.407680 0.072942 -1.344944
v -1.299168 0.072942 -1.591554
v -1.853424 0.299216 -1.365279
v -1.299168 -0.379606 -2.044102
v -1.853424 -0.605881 -2.270376
v -2.407680 -0.379606 -2.044102
v -2.407680 0.072942 -1.591554
v -1.853424 0.258565 2.932393
v -1.564981 0.032291 2.706119
v -1.564981 -0.420258 2.253570
v -1.853424 -0.646532 2.027296
v -2.141866 -0.420258 2.253570
v -2.141866 0.032291 2.706119
v -1.853424 0.258565 0.162110
v -1.564981 0.032291 -0.064164
v -1.564981 -0.420258 -0.516713
v -1.853424 -0.646532 -0.742987
v -2.141866 -0.420258 -0.516713
v -2.141866 0.032291 -0.064164
v -1.410019 0.027687 -1.450407
v -1.853424 0.208706 -1.269388
v -1.410019 -0.334352 -1.812446
v -1.853424 -0.515371 -1.993465
v -2.296829 -0.334352 -1.812446
v -2.296829 0.027687 -1.450407
vn 0.0000 -1.0000 0.0000
vn 0.0000 0.9806 0.1961
vn -0.7246 0.6800 0.1121
vn 0.7246 0.6800 0.1121
vn 0.4119 0.8762 0.2501
vn -0.0000 1.0000 0.0001
vn -0.9580 0.2867 0.0000
vn 0.9488 0.2839 0.1381
vn -0.9179 0.3920 0.0612
vn -0.0001 0.9864 0.1644
vn -0.0000 0.9864 0.1644
vn 0.0001 0.9864 0.1644
vn 0.9133 0.4074 0.0000
vn 0.0000 -1.0000 -0.0001
vn 0.9580 0.2867 0.0000
vn -0.9173 0.3981 0.0000
vn -0.4119 0.8762 0.2501
vn -0.6210 0.7838 0.0079
vn -0.9935 -0.0807 0.0807
vn -0.5966 -0.8015 0.0409
vn 0.5966 -0.8015 0.0409
vn 0.9935 -0.0807 0.0807
vn 0.6210 0.7838 0.0079
vn -0.3812 -0.9244 -0.0093
vn -0.3921 0.9190 0.0414
vn -0.8959 0.3826 0.2258
vn 0.8959 0.3826 0.2258
vn 0.9161 0.3912 0.0876
vn -0.9521 0.2849 0.1110
vn 0.3812 -0.9244 -0.0093
vn 0.3921 0.9190 0.0414
vn 0.0000 -0.5135 -0.8581
vn 0.0000 0.0002 -1.0000
vn 0.0000 0.7071 -0.7071
vn 0.0000 -0.7071 0.7071
vn 1.0000 0.0000 0.0000
vn -0.4998 -0.6299 -0.5945
vn -0.3780 -0.9258 0.0000
vn -0.3780 0.9258 0.0000
vn 0.3780 0.9258 0.0000
vn 0.3780 -0.9258 0.0000
vn -1.0000 0.0000 0.0000
vn 0.6172 0.7868 0.0000
vn 0.6172 -0.7868 0.0000
vn -0.6172 -0.7868 0.0000
vn -0.6172 0.7868 0.0000
vn -0.2527 0.9197 -0.3006
vn 0.7653 0.4551 -0.4551
vn -0.7653 0.4551 -0.4551
vn 0.2527 0.9197 -0.3006
vn 0.4998 -0.6299 -0.5945
vn 0.9565 0.1727 0.2353
vn 0.8917 0.2714 0.3622
vn 0.0000 0.8883 0.4593
vn -0.8903 0.2839 0.3560
vn -0.9073 0.3938 0.1474
vn 0.8979 0.4005 0.1829
vn -0.9666 0.1625 0.1981
vn 0.3878 0.0000 0.9217
vn 0.0000 0.0000 -1.0000
vn 0.0159 -0.9999 0.0000
vn 0.0159 0.9999 0.0000
vn 0.6108 0.6108 0.5037
vn -0.7071 -0.7071 0.0000
vn -0.4816 -0.4816 -0.7322
vn 0.8772 -0.4802 0.0000
vn -0.8492 0.5281 0.0000
vn 0.0000 -0.8639 0.5037
vn -0.0000 1.0000 0.0000
vn 0.0000 0.6811 -0.7322
vn -0.9598 -0.2807 0.0000
vn 0.9739 0.2271 0.0000
vn -0.3878 0.0000 0.9217
vn -0.0159 -0.9999 0.0000
vn -0.0159 0.9999 0.0000
vn -0.6108 0.6108 0.5037
vn 0.7071 -0.7071 0.0000
vn 0.4816 -0.4816 -0.7322
vn -0.8772 -0.4802 0.0000
vn 0.8492 0.5281 0.0000
vn 0.9598 -0.2807 0.0000
vn -0.9739 0.2271 0.0000
usemtl Material
s off
f 9//1 4//1 8//1
f 5//2 7//2 10//2
f 5//3 2//3 1//3
f 2//1 11//1 9//1
f 3//4 5//4 4//4
f 5//5 8//5 4//5
f 3//1 11//1 12//1
f 1//1 9//1 8//1
f 18//6 29//6 20//6
f 14//7 26//7 13//7
f 7//8 12//8 15//8
f 6//9 13//9 2//9
f 7//10 15//10 16//10
f 10//11 7//11 16//11
f 6//11 10//11 17//11
f 14//12 6//12 17//12
f 19//6 30//6 18//6
f 15//13 31//13 19//13
f 11//14 26//14 24//14
f 15//15 25//15 28//15
f 14//16 29//16 27//16
f 12//14 24//14 25//14
f 10//2 6//2 5//2
f 8//17 5//17 1//17
f 39//18 40//18 38//18
f 41//19 42//19 40//19
f 43//20 44//20 42//20
f 44//21 47//21 46//21
f 46//22 49//22 48//22
f 48//23 39//23 38//23
f 97//23 96//23 95//23
f 99//22 98//22 97//22
f 101//21 100//21 99//21
f 101//24 104//24 102//24
f 103//19 106//19 104//19
f 105//25 96//25 106//25
f 9//1 3//1 4//1
f 5//26 6//26 2//26
f 2//1 13//1 11//1
f 3//27 7//27 5//27
f 3//1 9//1 11//1
f 1//1 2//1 9//1
f 18//6 30//6 29//6
f 14//7 27//7 26//7
f 7//28 3//28 12//28
f 6//29 14//29 13//29
f 19//6 31//6 30//6
f 15//13 28//13 31//13
f 11//14 13//14 26//14
f 15//15 12//15 25//15
f 14//16 20//16 29//16
f 12//14 11//14 24//14
f 39//25 41//25 40//25
f 41//19 43//19 42//19
f 43//24 45//24 44//24
f 44//30 45//30 47//30
f 46//22 47//22 49//22
f 48//31 49//31 39//31
f 97//31 98//31 96//31
f 99//22 100//22 98//22
f 101//30 102//30 100//30
f 101//20 103//20 104//20
f 103//19 105//19 106//19
f 105//18 95//18 96//18
usemtl Engine
f 28//13 37//13 31//13
f 28//15 25//15 33//15
f 31//6 36//6 30//6
f 24//32 33//32 25//32
f 32//32 24//32 26//32
f 34//33 37//33 33//33
f 34//33 35//33 36//33
f 30//6 35//6 29//6
f 27//16 35//16 32//16
f 26//7 27//7 32//7
f 49//34 66//34 39//34
f 46//35 80//35 44//35
f 69//36 76//36 70//36
f 45//34 69//34 47//34
f 41//34 67//34 43//34
f 47//34 70//34 49//34
f 41//34 66//34 65//34
f 43//34 68//34 45//34
f 72//37 94//37 90//37
f 68//38 73//38 74//38
f 65//39 72//39 71//39
f 70//40 72//40 66//40
f 68//41 75//41 69//41
f 67//42 71//42 73//42
f 81//42 88//42 87//42
f 42//35 78//35 40//35
f 48//35 81//35 46//35
f 40//35 77//35 38//35
f 42//35 80//35 79//35
f 48//35 77//35 82//35
f 84//35 87//35 88//35
f 80//43 85//43 79//43
f 78//44 83//44 77//44
f 82//45 83//45 88//45
f 80//46 87//46 86//46
f 79//36 84//36 78//36
f 94//34 93//34 91//34
f 75//47 92//47 93//47
f 71//48 91//48 73//48
f 76//49 93//49 94//49
f 73//50 92//50 74//50
f 72//51 89//51 71//51
f 123//34 106//34 96//34
f 137//35 103//35 101//35
f 133//42 126//42 127//42
f 126//34 102//34 104//34
f 100//34 122//34 98//34
f 127//34 104//34 106//34
f 122//34 96//34 98//34
f 125//34 100//34 102//34
f 129//51 151//51 133//51
f 125//41 130//41 124//41
f 122//40 129//40 123//40
f 129//39 127//39 123//39
f 132//38 125//38 126//38
f 124//36 128//36 122//36
f 138//36 145//36 139//36
f 135//35 99//35 97//35
f 138//35 105//35 103//35
f 134//35 97//35 95//35
f 99//35 137//35 101//35
f 105//35 134//35 95//35
f 145//35 142//35 141//35
f 142//46 137//46 136//46
f 140//45 135//45 134//45
f 139//44 140//44 134//44
f 137//43 144//43 138//43
f 141//42 136//42 135//42
f 148//34 151//34 147//34
f 132//50 149//50 131//50
f 148//49 128//49 130//49
f 133//48 150//48 132//48
f 149//47 130//47 131//47
f 146//37 129//37 128//37
f 28//13 33//13 37//13
f 31//6 37//6 36//6
f 24//32 34//32 33//32
f 32//32 34//32 24//32
f 34//33 36//33 37//33
f 34//33 32//33 35//33
f 30//6 36//6 35//6
f 27//16 29//16 35//16
f 49//34 70//34 66//34
f 46//35 81//35 80//35
f 69//36 75//36 76//36
f 45//34 68//34 69//34
f 41//34 65//34 67//34
f 47//34 69//34 70//34
f 41//34 39//34 66//34
f 43//34 67//34 68//34
f 72//37 76//37 94//37
f 68//38 67//38 73//38
f 65//39 66//39 72//39
f 70//40 76//40 72//40
f 68//41 74//41 75//41
f 67//42 65//42 71//42
f 81//42 82//42 88//42
f 42//35 79//35 78//35
f 48//35 82//35 81//35
f 40//35 78//35 77//35
f 42//35 44//35 80//35
f 48//35 38//35 77//35
f 88//35 83//35 84//35
f 84//35 85//35 87//35
f 86//35 87//35 85//35
f 80//43 86//43 85//43
f 78//44 84//44 83//44
f 82//45 77//45 83//45
f 80//46 81//46 87//46
f 79//36 85//36 84//36
f 91//34 89//34 90//34
f 90//34 94//34 91//34
f 93//34 92//34 91//34
f 75//47 74//47 92//47
f 71//48 89//48 91//48
f 76//49 75//49 93//49
f 73//50 91//50 92//50
f 72//51 90//51 89//51
f 123//34 127//34 106//34
f 137//35 138//35 103//35
f 133//42 132//42 126//42
f 126//34 125//34 102//34
f 100//34 124//34 122//34
f 127//34 126//34 104//34
f 122//34 123//34 96//34
f 125//34 124//34 100//34
f 129//51 147//51 151//51
f 125//41 131//41 130//41
f 122//40 128//40 129//40
f 129//39 133//39 127//39
f 132//38 131//38 125//38
f 124//36 130//36 128//36
f 138//36 144//36 145//36
f 135//35 136//35 99//35
f 138//35 139//35 105//35
f 134//35 135//35 97//35
f 99//35 136//35 137//35
f 105//35 139//35 134//35
f 141//35 140//35 145//35
f 145//35 144//35 142//35
f 143//35 142//35 144//35
f 142//46 143//46 137//46
f 140//45 141//45 135//45
f 139//44 145//44 140//44
f 137//43 143//43 144//43
f 141//42 142//42 136//42
f 147//34 146//34 148//34
f 148//34 149//34 150//34
f 150//34 151//34 148//34
f 132//50 150//50 149//50
f 148//49 146//49 128//49
f 133//48 151//48 150//48
f 149//47 148//47 130//47
f 146//37 147//37 129//37
usemtl Window
f 15//52 21//52 16//52
f 10//53 16//53 21//53
f 10//54 21//54 23//54
f 22//54 10//54 23//54
f 17//55 10//55 22//55
f 14//56 22//56 20//56
f 21//11 18//11 23//11
f 18//11 22//11 23//11
f 15//57 19//57 21//57
f 14//58 17//58 22//58
f 21//11 19//11 18//11
f 18//11 20//11 22//11
usemtl Wing
f 50//59 54//59 53//59
f 52//42 53//42 54//42
f 52//60 50//60 51//60
f 50//61 53//61 51//61
f 52//62 54//62 50//62
f 55//63 59//63 58//63
f 57//64 58//64 59//64
f 57//65 55//65 56//65
f 55//66 58//66 56//66
f 57//67 59//67 55//67
f 60//68 64//68 63//68
f 62//69 63//69 64//69
f 62//70 60//70 61//70
f 60//71 63//71 61//71
f 62//72 64//72 60//72
f 107//73 110//73 111//73
f 110//36 109//36 111//36
f 109//60 108//60 107//60
f 107//74 108//74 110//74
f 109//75 107//75 111//75
f 112//76 115//76 116//76
f 115//77 114//77 116//77
f 114//78 113//78 112//78
f 112//79 113//79 115//79
f 114//80 112//80 116//80
f 117//68 120//68 121//68
f 120//69 119//69 121//69
f 119//70 118//70 117//70
f 117//81 118//81 120//81
f 119//82 117//82 121//82
f 52//42 51//42 53//42
f 57//64 56//64 58//64
f 62//69 61//69 63//69
f 110//36 108//36 109//36
f 115//77 113//77 114//77
f 120//69 118//69 119//69
