***  SPBRPOL ver.002b  ***
              2017/11/23

BB_MIN: (-0.416976 -0.234051 -0.146123)
BB_MAX: (0.416976 0.234051 0.146123)
** Orthogonal camera is set.
ALPHA       : 0.2
REPEAT_LEVEL: 1000
RESOLUTION  : 1024
particle diameter : 0.00135734
** Start converting polygons to particles 
ply vertex num:479980
ply face num:167648
pixel width:0.00135734
S(area):0.687197
min P(area):3.20611e-09
point_dist:9.08653e-05
n_sum (theoretical):8.32311e+07
Num of created particles: 86809013
Particle-creation time (sec): 4.29358
** Start particle shuffling
** Shuffling completed
Shuffling time (sec): 12.305
** Start creating ValuedArray objects
Number of created particles: 86809013
** ValuedArray objects created
Time to create the ValuedArray objects: 0.988918
SHADING: OFF
PARTICLE ZOOM: OFF
LOD: ON
