InputImage/sp0006962.bmp,51.1163,1.29652
InputImage/sp0080000.bmp,52.529,2.23952
InputImage/sp0059858.bmp,51.6032,1.50285
InputImage/sp0169362.bmp,52.5105,1.90238
InputImage/sp0099458.bmp,52.6118,2.17385
InputImage/sp0149058.bmp,53.2033,2.3953
InputImage/sp0159048.bmp,52.3478,1.77182
InputImage/sp0139392.bmp,52.7551,2.13492
InputImage/sp0020000.bmp,51.6393,1.79332
InputImage/sp0069938.bmp,51.4473,1.40684
InputImage/sp0199712.bmp,52.9184,2.03762
InputImage/sp0005832.bmp,51.1976,1.38878
InputImage/sp0029768.bmp,51.2423,1.32952
InputImage/sp0039762.bmp,51.7183,1.66096
InputImage/sp0005000.bmp,51.1967,1.46861
InputImage/sp0001922.bmp,51.1004,1.3498
InputImage/sp0009800.bmp,51.4295,1.65342
InputImage/sp0119072.bmp,51.4679,1.3759
InputImage/sp0180000.bmp,52.3769,1.83866
InputImage/sp0002888.bmp,51.0058,1.22462
InputImage/sp0049928.bmp,51.5772,1.55504
InputImage/sp0129032.bmp,52.7797,2.2271
InputImage/sp0003872.bmp,51.1559,1.37537
InputImage/sp0189728.bmp,52.7392,1.99432
InputImage/sp0089888.bmp,51.596,1.46656
InputImage/sp0008978.bmp,51.3283,1.52505
InputImage/sp0007938.bmp,51.1524,1.31915
InputImage/sp0109512.bmp,51.6075,1.43188
InputImage/sp0000968.bmp,51.0625,1.32581
