***  SPBRPOL ver.002e ***
              2017/11/23

BB_MIN: (0 0 0)
BB_MAX: (1 1 0)
** Orthogonal camera is set.
ALPHA       : 0.2
REPEAT_LEVEL: 1000
RESOLUTION  : 1500
particle diameter : 0.00111111
** Start converting polygons to particles 
ply vertex num:3025
ply face num:5832
pixel width:0.00111111
S(area):1
min P(area):0.000171458
point_dist:7.43816e-05
n_sum (theoretical):1.80746e+08
Num of created particles: 181599841
Particle-creation time (sec): 9.574
** Start particle shuffling
** Shuffling completed
Shuffling time (sec): 35.9547
** Start creating ValuedArray objects
Number of created particles: 181599841
** ValuedArray objects created
Time to create the ValuedArray objects: 2.32111
SHADING: OFF
PARTICLE ZOOM: OFF
LOD: ON
