InputImage/sp000002.bmp,50.8996,1.16503
InputImage/sp000098.bmp,51.0033,1.25536
InputImage/sp000200.bmp,50.9582,1.19647
InputImage/sp000288.bmp,51.0364,1.27586
InputImage/sp000392.bmp,51.0308,1.25328
InputImage/sp000450.bmp,51.0106,1.23624
InputImage/sp000578.bmp,51.0152,1.23803
InputImage/sp000648.bmp,51.0465,1.2655
InputImage/sp000800.bmp,51.1648,1.38066
InputImage/sp000882.bmp,51.2372,1.45149
InputImage/sp000968.bmp,51.0972,1.29954
InputImage/sp001922.bmp,51.4862,1.70062
InputImage/sp002888.bmp,51.2282,1.34732
InputImage/sp003872.bmp,51.5685,1.65491
InputImage/sp005000.bmp,51.3005,1.36513
InputImage/sp005832.bmp,51.4766,1.54752
InputImage/sp006962.bmp,51.1544,1.36864
InputImage/sp007938.bmp,51.3268,1.70817
InputImage/sp008978.bmp,51.0223,1.6124
InputImage/sp009800.bmp,50.9348,1.58948
InputImage/sp010952.bmp,51.2473,2.04998
InputImage/sp011858.bmp,50.9643,1.74175
InputImage/sp012800.bmp,51.1729,1.94751
InputImage/sp013778.bmp,51.1805,2.00655
InputImage/sp014792.bmp,50.9266,1.84297
InputImage/sp015842.bmp,50.4723,1.6081
InputImage/sp016928.bmp,50.3967,1.55555
InputImage/sp017672.bmp,50.7707,1.82389
InputImage/sp018818.bmp,50.6551,1.8269
InputImage/sp020000.bmp,50.0972,1.45835
InputImage/sp20808.bmp,50.1967,1.52684
InputImage/sp21632.bmp,51.2293,2.21006
InputImage/sp22898.bmp,50.2799,1.57189
InputImage/sp23762.bmp,51.1759,2.17936
InputImage/sp24642.bmp,50.9422,1.96262
InputImage/sp25992.bmp,50.7496,1.97963
InputImage/sp26912.bmp,50.3157,1.65646
InputImage/sp27848.bmp,49.9818,1.4748
InputImage/sp28800.bmp,51.4762,2.31672
InputImage/sp29768.bmp,50.8749,1.86799
InputImage/sp49928.bmp,52.1409,2.35194
InputImage/sp80000.bmp,50.7808,1.65752
InputImage/sp89888.bmp,51.0511,1.76055
InputImage/sp99458.bmp,51.7723,1.98007
