InputImage/sp000002.bmp,50.9006,1.16352
InputImage/sp000098.bmp,51.0018,1.25682
InputImage/sp000200.bmp,50.958,1.1998
InputImage/sp000288.bmp,51.0332,1.27303
InputImage/sp000392.bmp,51.0356,1.2586
InputImage/sp000450.bmp,51.0187,1.23923
InputImage/sp000578.bmp,51.0158,1.23451
InputImage/sp000648.bmp,51.0488,1.26172
InputImage/sp000800.bmp,51.161,1.37629
InputImage/sp000882.bmp,51.2412,1.453
InputImage/sp000968.bmp,51.1002,1.30303
InputImage/sp001922.bmp,51.4859,1.70313
InputImage/sp002888.bmp,51.2226,1.34625
InputImage/sp003872.bmp,51.5702,1.65489
InputImage/sp005000.bmp,51.2976,1.36592
InputImage/sp005832.bmp,51.4716,1.54173
InputImage/sp006962.bmp,51.1512,1.37288
InputImage/sp007938.bmp,51.3328,1.69805
InputImage/sp008978.bmp,51.0209,1.60867
InputImage/sp009800.bmp,50.9285,1.59488
InputImage/sp010952.bmp,51.2476,2.04615
InputImage/sp011858.bmp,50.9677,1.74362
InputImage/sp012800.bmp,51.1749,1.94271
InputImage/sp013778.bmp,51.1778,2.00588
InputImage/sp014792.bmp,50.9318,1.84951
InputImage/sp015842.bmp,50.4788,1.61092
InputImage/sp016928.bmp,50.399,1.55079
InputImage/sp017672.bmp,50.782,1.82962
InputImage/sp018818.bmp,50.6659,1.83217
InputImage/sp020000.bmp,50.1,1.45377
InputImage/sp20808.bmp,50.194,1.52632
InputImage/sp21632.bmp,51.2271,2.21205
InputImage/sp22898.bmp,50.2745,1.56999
InputImage/sp23762.bmp,51.1654,2.17859
InputImage/sp24642.bmp,50.9418,1.96502
InputImage/sp25992.bmp,50.7574,1.9778
InputImage/sp26912.bmp,50.3177,1.64846
InputImage/sp27848.bmp,49.9827,1.46849
InputImage/sp28800.bmp,51.4719,2.30908
InputImage/sp29768.bmp,50.8758,1.86613
InputImage/sp49928.bmp,52.139,2.3578
InputImage/sp80000.bmp,50.7772,1.64707
InputImage/sp89888.bmp,51.0512,1.76316
InputImage/sp99458.bmp,51.7718,1.99056
