***  SPBRPOL ver.002d ***
              2017/11/23

BB_MIN: (0 0 0)
BB_MAX: (1 1 0)
** Orthogonal camera is set.
ALPHA       : 0.2
REPEAT_LEVEL: 1000
RESOLUTION  : 750
particle diameter : 0.00222222
** Start converting polygons to particles 
ply vertex num:441
ply face num:800
pixel width:0.00222222
S(area):1
min P(area):0.00125
point_dist:0.000148763
n_sum (theoretical):4.51865e+07
Num of created particles: 45438441
Particle-creation time (sec): 2.62141
** Start particle shuffling
** Shuffling completed
Shuffling time (sec): 5.34865
** Start creating ValuedArray objects
Number of created particles: 45438441
** ValuedArray objects created
Time to create the ValuedArray objects: 0.878636
SHADING: OFF
PARTICLE ZOOM: OFF
LOD: ON
