***  SPBRPOL ver.002b  ***
              2017/11/23

BB_MIN: (-0.957194 -0.638129 0)
BB_MAX: (1.09454 0.638129 1.00557)
** Orthogonal camera is set.
ALPHA       : 0.2
REPEAT_LEVEL: 1000
RESOLUTION  : 750
particle diameter : 0.00455941
** Start converting polygons to particles 
ply vertex num:29546
ply face num:9856
pixel width:0.00455941
S(area):5.3866
min P(area):6.11415e-06
point_dist:0.000305223
n_sum (theoretical):5.78203e+07
Num of created particles: 58045380
Particle-creation time (sec): 2.5703
** Start particle shuffling
** Shuffling completed
Shuffling time (sec): 7.00372
** Start creating ValuedArray objects
Number of created particles: 58045380
** ValuedArray objects created
Time to create the ValuedArray objects: 1.15466
SHADING: OFF
PARTICLE ZOOM: OFF
LOD: ON
