***  SPBRPOL ver.002b  ***
              2017/11/23

BB_MIN: (0 0 0)
BB_MAX: (1 1 0)
** Orthogonal camera is set.
ALPHA       : 0.2
REPEAT_LEVEL: 1000
RESOLUTION  : 1024
particle diameter : 0.0016276
** Start converting polygons to particles 
ply vertex num:5041
ply face num:9800
pixel width:0.0016276
S(area):1
min P(area):0.00010203
point_dist:0.000108957
n_sum (theoretical):8.42338e+07
Num of created particles: 85402100
Particle-creation time (sec): 3.96722
** Start particle shuffling
** Shuffling completed
Shuffling time (sec): 12.5397
** Start creating ValuedArray objects
Number of created particles: 85402100
** ValuedArray objects created
Time to create the ValuedArray objects: 0.996105
SHADING: OFF
PARTICLE ZOOM: OFF
LOD: ON
