***  SPBRPOL ver.002e ***
              2017/11/23

BB_MIN: (0 0 0)
BB_MAX: (1 1 0)
** Orthogonal camera is set.
ALPHA       : 0.2
REPEAT_LEVEL: 1000
RESOLUTION  : 512
particle diameter : 0.00325521
** Start converting polygons to particles 
ply vertex num:441
ply face num:800
pixel width:0.00325521
S(area):1
min P(area):0.00125
point_dist:0.000217915
n_sum (theoretical):2.10584e+07
Num of created particles: 21187641
Particle-creation time (sec): 1.3576
** Start particle shuffling
** Shuffling completed
Shuffling time (sec): 2.00719
** Start creating ValuedArray objects
Number of created particles: 21187641
** ValuedArray objects created
Time to create the ValuedArray objects: 0.459942
SHADING: OFF
PARTICLE ZOOM: OFF
LOD: ON
