***  SPBRPOL ver.002e ***
              2017/11/23

BB_MIN: (0 0 0)
BB_MAX: (1 1 0)
** Orthogonal camera is set.
ALPHA       : 0.2
REPEAT_LEVEL: 1000
RESOLUTION  : 512
particle diameter : 0.00325521
** Start converting polygons to particles 
ply vertex num:361
ply face num:648
pixel width:0.00325521
S(area):1
min P(area):0.00154318
point_dist:0.000217915
n_sum (theoretical):2.10584e+07
Num of created particles: 21131317
Particle-creation time (sec): 1.35848
** Start particle shuffling
** Shuffling completed
Shuffling time (sec): 1.94851
** Start creating ValuedArray objects
Number of created particles: 21131317
** ValuedArray objects created
Time to create the ValuedArray objects: 0.461587
SHADING: OFF
PARTICLE ZOOM: OFF
LOD: ON
