***  SPBRPOL ver.002b  ***
              2017/11/23

BB_MIN: (0 0 0)
BB_MAX: (1 1 0)
** Orthogonal camera is set.
ALPHA       : 0.2
REPEAT_LEVEL: 1000
RESOLUTION  : 1024
particle diameter : 0.0016276
** Start converting polygons to particles 
ply vertex num:3025
ply face num:5832
pixel width:0.0016276
S(area):1
min P(area):0.000171458
point_dist:0.000108957
n_sum (theoretical):8.42338e+07
Num of created particles: 84718657
Particle-creation time (sec): 3.98695
** Start particle shuffling
** Shuffling completed
Shuffling time (sec): 10.7212
** Start creating ValuedArray objects
Number of created particles: 84718657
** ValuedArray objects created
Time to create the ValuedArray objects: 1.00214
SHADING: OFF
PARTICLE ZOOM: OFF
LOD: ON
