InputImage/sp000002.bmp,50.895,1.15936
InputImage/sp000098.bmp,50.9778,1.24757
InputImage/sp000200.bmp,51.0128,1.26928
InputImage/sp000288.bmp,51.0506,1.32916
InputImage/sp000392.bmp,51.0833,1.3748
InputImage/sp000450.bmp,51.0557,1.32111
InputImage/sp000578.bmp,51.0944,1.3419
InputImage/sp000648.bmp,51.0934,1.34222
InputImage/sp000800.bmp,51.148,1.42229
InputImage/sp000882.bmp,51.1298,1.40896
InputImage/sp000968.bmp,51.1381,1.37126
InputImage/sp001922.bmp,51.0757,1.2781
InputImage/sp002888.bmp,51.199,1.40133
InputImage/sp003872.bmp,51.3115,1.50268
InputImage/sp005000.bmp,51.4635,1.63282
InputImage/sp005832.bmp,51.5301,1.67715
InputImage/sp006962.bmp,51.368,1.51845
InputImage/sp007938.bmp,51.2808,1.41313
InputImage/sp008978.bmp,51.4804,1.62283
InputImage/sp009800.bmp,51.6752,1.86287
InputImage/sp010952.bmp,51.4424,1.50516
InputImage/sp011858.bmp,51.7269,1.7583
InputImage/sp012800.bmp,51.7835,1.94803
InputImage/sp013778.bmp,49.4559,1.99889
InputImage/sp014792.bmp,49.8802,1.783
InputImage/sp015842.bmp,49.5153,1.94053
InputImage/sp016928.bmp,49.9582,1.744
InputImage/sp017672.bmp,49.7503,1.77442
InputImage/sp018818.bmp,49.9077,1.7252
InputImage/sp020000.bmp,49.9048,1.73117
