***  SPBRPOL ver.002a  ***
              2017/03/12

BB_MIN: (-0.416976 -0.234051 -0.146123)
BB_MAX: (0.416976 0.234051 0.146123)
** Perspective camera is set.
ALPHA       : 0.2
REPEAT_LEVEL: 1000
RESOLUTION  : 750
particle diameter : 0.00184232
** Start converting polygons to particles 
ply vertex num:5241
ply face num:10478
pixel width:0.00184232
S(area):0.687197
min P(area):5.47418e-08
point_dist:0.000123331
n_sum (theoretical):4.5179e+07
Num of created particles: 45859343
Particle-creation time (sec): 2.0402
** Start particle shuffling
** Shuffling completed
Shuffling time (sec): 5.25873
** Start creating ValuedArray objects
Number of created particles: 45859343
** ValuedArray objects created
Time to create the ValuedArray objects: 0.913151
SHADING: OFF
PARTICLE ZOOM: OFF
LOD: ON
