InputImage/sp0006962.bmp,76.7025,1.91903
InputImage/sp0080000.bmp,77.3295,2.18572
InputImage/sp0059858.bmp,77.0649,2.07096
InputImage/sp0169362.bmp,77.3567,2.0794
InputImage/sp0099458.bmp,77.0436,1.91601
InputImage/sp0149058.bmp,77.8042,2.45754
InputImage/sp0159048.bmp,77.4531,2.1585
InputImage/sp0139392.bmp,77.1569,1.94091
InputImage/sp0020000.bmp,76.7427,1.85399
InputImage/sp0069938.bmp,77.2871,2.19251
InputImage/sp0199712.bmp,77.3928,2.01942
InputImage/sp0005832.bmp,76.5682,1.77733
InputImage/sp0029768.bmp,76.7091,1.81365
InputImage/sp0039762.bmp,76.8945,1.92679
InputImage/sp0005000.bmp,76.6721,1.90604
InputImage/sp0001922.bmp,76.5324,1.80578
InputImage/sp0009800.bmp,76.5515,1.76279
InputImage/sp0119072.bmp,77.1146,1.9636
InputImage/sp0180000.bmp,77.2671,1.99225
InputImage/sp0002888.bmp,76.5503,1.79579
InputImage/sp0049928.bmp,76.8963,1.93837
InputImage/sp0129032.bmp,77.6744,2.35647
InputImage/sp0003872.bmp,76.6153,1.86845
InputImage/sp0189728.bmp,77.7194,2.25838
InputImage/sp0089888.bmp,77.0769,2.00043
InputImage/sp0008978.bmp,76.6914,1.90416
InputImage/sp0007938.bmp,76.568,1.76783
InputImage/sp0109512.bmp,76.8371,1.80624
InputImage/sp0000968.bmp,76.4772,1.76805
