***  SPBRPOL ver.002b  ***
              2017/11/23

BB_MIN: (0 0 0)
BB_MAX: (1 1 0)
** Orthogonal camera is set.
ALPHA       : 0.2
REPEAT_LEVEL: 1000
RESOLUTION  : 750
particle diameter : 0.00222222
** Start converting polygons to particles 
ply vertex num:1024
ply face num:1922
pixel width:0.00222222
S(area):1
min P(area):0.000520283
point_dist:0.000148763
n_sum (theoretical):4.51865e+07
Num of created particles: 45378420
Particle-creation time (sec): 2.1273
** Start particle shuffling
** Shuffling completed
Shuffling time (sec): 5.48072
** Start creating ValuedArray objects
Number of created particles: 45378420
** ValuedArray objects created
Time to create the ValuedArray objects: 0.943452
SHADING: OFF
PARTICLE ZOOM: OFF
LOD: ON
