***  SPBRPOL ver.002b  ***
              2017/11/23

BB_MIN: (-0.416976 -0.234051 -0.146123)
BB_MAX: (0.416976 0.234051 0.146123)
** Orthogonal camera is set.
ALPHA       : 0.2
REPEAT_LEVEL: 1000
RESOLUTION  : 512
particle diameter : 0.00271469
** Start converting polygons to particles 
ply vertex num:31316
ply face num:10478
pixel width:0.00271469
S(area):0.687197
min P(area):5.36516e-08
point_dist:0.000181731
n_sum (theoretical):2.08077e+07
Num of created particles: 21268532
Particle-creation time (sec): 1.00893
** Start particle shuffling
** Shuffling completed
Shuffling time (sec): 1.97904
** Start creating ValuedArray objects
Number of created particles: 21268532
** ValuedArray objects created
Time to create the ValuedArray objects: 0.427542
SHADING: OFF
PARTICLE ZOOM: OFF
LOD: ON
