InputImage/sp0006962.bmp,76.8663,1.82316
InputImage/sp0080000.bmp,77.5271,1.91801
InputImage/sp0059858.bmp,76.9734,1.61886
InputImage/sp0169362.bmp,77.594,1.77405
InputImage/sp0099458.bmp,77.4293,1.80896
InputImage/sp0149058.bmp,77.6055,1.78065
InputImage/sp0159048.bmp,78.7876,2.42635
InputImage/sp0139392.bmp,77.4207,1.72442
InputImage/sp0020000.bmp,76.9945,1.7523
InputImage/sp0069938.bmp,77.511,1.91689
InputImage/sp0199712.bmp,77.9259,1.84646
InputImage/sp0005832.bmp,76.6866,1.68905
InputImage/sp0029768.bmp,77.4508,2.15324
InputImage/sp0039762.bmp,77.4606,2.03598
InputImage/sp0005000.bmp,76.7098,1.71455
InputImage/sp0001922.bmp,76.5526,1.60808
InputImage/sp0009800.bmp,76.94,1.83917
InputImage/sp0119072.bmp,78.6523,2.55012
InputImage/sp0180000.bmp,78.249,2.11965
InputImage/sp0002888.bmp,76.6352,1.63439
InputImage/sp0049928.bmp,77.0924,1.71354
InputImage/sp0129032.bmp,77.2853,1.6562
InputImage/sp0003872.bmp,76.6062,1.62434
InputImage/sp0189728.bmp,77.9282,1.96562
InputImage/sp0089888.bmp,77.3762,1.78497
InputImage/sp0008978.bmp,76.7205,1.68224
InputImage/sp0007938.bmp,76.6017,1.563
InputImage/sp0109512.bmp,77.6693,1.87963
InputImage/sp0000968.bmp,76.5202,1.56528
