InputImage/sp0006962.bmp,76.8036,1.80306
InputImage/sp0080000.bmp,77.1955,1.82928
InputImage/sp0059858.bmp,77.2196,1.92557
InputImage/sp0169362.bmp,77.8666,2.01934
InputImage/sp0099458.bmp,77.5581,2.0358
InputImage/sp0149058.bmp,78.3074,2.34775
InputImage/sp0159048.bmp,78.2216,2.23946
InputImage/sp0139392.bmp,78.1156,2.21721
InputImage/sp0020000.bmp,76.7509,1.65144
InputImage/sp0069938.bmp,77.0291,1.69285
InputImage/sp0199712.bmp,77.944,2.00611
InputImage/sp0005832.bmp,76.6616,1.65544
InputImage/sp0029768.bmp,77.2164,1.99504
InputImage/sp0039762.bmp,77.0771,1.80191
InputImage/sp0005000.bmp,76.5327,1.55723
InputImage/sp0001922.bmp,76.5927,1.64843
InputImage/sp0009800.bmp,76.6772,1.62311
InputImage/sp0119072.bmp,77.4295,1.8111
InputImage/sp0180000.bmp,77.9952,2.06341
InputImage/sp0002888.bmp,76.6049,1.65559
InputImage/sp0049928.bmp,77.2808,1.91499
InputImage/sp0129032.bmp,77.1782,1.68091
InputImage/sp0003872.bmp,76.67,1.70323
InputImage/sp0189728.bmp,78.6109,2.40147
InputImage/sp0089888.bmp,77.7728,2.17424
InputImage/sp0008978.bmp,76.6457,1.60804
InputImage/sp0007938.bmp,76.6305,1.60176
InputImage/sp0109512.bmp,77.299,1.77395
InputImage/sp0000968.bmp,76.4846,1.55506
