InputImage/sp000002.bmp,76.3532,1.51962
InputImage/sp000098.bmp,76.5212,1.55098
InputImage/sp000200.bmp,76.608,1.62553
InputImage/sp000288.bmp,76.578,1.61664
InputImage/sp000392.bmp,76.596,1.7186
InputImage/sp000450.bmp,76.478,1.54036
InputImage/sp000578.bmp,76.662,1.71107
InputImage/sp000648.bmp,76.6548,1.64208
InputImage/sp000800.bmp,76.7768,1.88079
InputImage/sp000882.bmp,76.7356,1.74313
InputImage/sp000968.bmp,76.6152,1.53751
InputImage/sp001922.bmp,76.8644,1.83598
InputImage/sp002888.bmp,76.7484,1.62564
InputImage/sp003872.bmp,76.8676,1.65882
InputImage/sp005000.bmp,77.534,2.20763
InputImage/sp005832.bmp,77.0268,1.76717
InputImage/sp006962.bmp,77.6452,2.08636
InputImage/sp007938.bmp,77.7272,2.23212
InputImage/sp008978.bmp,77.3856,1.84047
InputImage/sp009800.bmp,77.3152,1.8319
InputImage/sp010952.bmp,77.352,1.91293
InputImage/sp011858.bmp,77.59,1.99727
InputImage/sp012800.bmp,77.5368,1.90049
InputImage/sp013778.bmp,77.0004,1.63107
InputImage/sp014792.bmp,77.6832,1.93133
InputImage/sp015842.bmp,78.1548,2.29182
InputImage/sp016928.bmp,78.3628,2.39933
InputImage/sp017672.bmp,77.6492,1.90907
InputImage/sp018818.bmp,77.4552,1.76884
InputImage/sp020000.bmp,78.678,2.61027
