***  SPBRPOL ver.002e ***
              2017/11/23

BB_MIN: (-0.957194 -0.638129 0)
BB_MAX: (1.09427 0.638129 1.00505)
** Orthogonal camera is set.
ALPHA       : 0.2
REPEAT_LEVEL: 1000
RESOLUTION  : 512
particle diameter : 0.00667795
** Start converting polygons to particles 
ply vertex num:1292
ply face num:2464
pixel width:0.00667795
S(area):5.35194
min P(area):4.86747e-05
point_dist:0.000447046
n_sum (theoretical):2.67798e+07
Num of created particles: 27053085
Particle-creation time (sec): 1.70229
** Start particle shuffling
** Shuffling completed
Shuffling time (sec): 2.73377
** Start creating ValuedArray objects
Number of created particles: 27053085
** ValuedArray objects created
Time to create the ValuedArray objects: 0.594163
SHADING: OFF
PARTICLE ZOOM: OFF
LOD: ON
